%!PS-Adobe-3.0
%%Creator: PCBNEW
%%CreationDate: Fri Sep 22 01:44:19 2017
%%Title: /home/gustavo/repositories/odin-sd/design/gerber/odin_sd-drl_map.ps
%%Pages: 1
%%PageOrder: Ascend
%%BoundingBox: 0 0 596 842
%%DocumentMedia: A4 595 842 0 () ()
%%Orientation: Landscape
%%EndComments
%%BeginProlog
/line { newpath moveto lineto stroke } bind def
/cir0 { newpath 0 360 arc stroke } bind def
/cir1 { newpath 0 360 arc gsave fill grestore stroke } bind def
/cir2 { newpath 0 360 arc gsave fill grestore stroke } bind def
/arc0 { newpath arc stroke } bind def
/arc1 { newpath 4 index 4 index moveto arc closepath gsave fill
    grestore stroke } bind def
/arc2 { newpath 4 index 4 index moveto arc closepath gsave fill
    grestore stroke } bind def
/poly0 { stroke } bind def
/poly1 { closepath gsave fill grestore stroke } bind def
/poly2 { closepath gsave fill grestore stroke } bind def
/rect0 { rectstroke } bind def
/rect1 { rectfill } bind def
/rect2 { rectfill } bind def
/linemode0 { 0 setlinecap 0 setlinejoin 0 setlinewidth } bind def
/linemode1 { 1 setlinecap 1 setlinejoin } bind def
/dashedline { [200] 100 setdash } bind def
/solidline { [] 0 setdash } bind def
/phantomshow { moveto
    /KicadFont findfont 0.000001 scalefont setfont
    show } bind def
/textshow { gsave
    findfont exch scalefont setfont concat 1 scale 0 0 moveto show
    } bind def
/reencodefont {
  findfont dup length dict begin
  { 1 index /FID ne
    { def }
    { pop pop } ifelse
  } forall
  /Encoding ISOLatin1Encoding def
  currentdict
  end } bind def
/KicadFont /Helvetica reencodefont definefont pop
/KicadFont-Bold /Helvetica-Bold reencodefont definefont pop
/KicadFont-Oblique /Helvetica-Oblique reencodefont definefont pop
/KicadFont-BoldOblique /Helvetica-BoldOblique reencodefont definefont pop
%%EndProlog
%%Page: 1 1
%%BeginPageSetup
gsave
0.0072 0.0072 scale
linemode1
82680 0 translate 90 rotate
150 setlinewidth
%%EndPageSetup
78.7394 setlinewidth
newpath
189083 -31537.6 moveto
189556 -32010 lineto
stroke
newpath
189556 -31537.6 moveto
189083 -32010 lineto
stroke
newpath
189083 -42663 moveto
189556 -43135.4 lineto
stroke
newpath
189556 -42663 moveto
189083 -43135.4 lineto
stroke
newpath
192601 -50161.2 moveto
193074 -50633.6 lineto
stroke
newpath
193074 -50161.2 moveto
192601 -50633.6 lineto
stroke
newpath
193771 -34517.4 moveto
194244 -34989.8 lineto
stroke
newpath
194244 -34517.4 moveto
193771 -34989.8 lineto
stroke
newpath
195952 -32047.2 moveto
196425 -32519.7 lineto
stroke
newpath
196425 -32047.2 moveto
195952 -32519.7 lineto
stroke
newpath
197045 -34709.4 moveto
197517 -35181.9 lineto
stroke
newpath
197517 -34709.4 moveto
197045 -35181.9 lineto
stroke
newpath
202946 -49950.7 moveto
203419 -50423.2 lineto
stroke
newpath
203419 -49950.7 moveto
202946 -50423.2 lineto
stroke
newpath
202949 -35804.6 moveto
203422 -36277 lineto
stroke
newpath
203422 -35804.6 moveto
202949 -36277 lineto
stroke
newpath
203258 -60236 moveto
203730 -60708.4 lineto
stroke
newpath
203730 -60236 moveto
203258 -60708.4 lineto
stroke
newpath
205527 -29957.9 moveto
205999 -30430.3 lineto
stroke
newpath
205999 -29957.9 moveto
205527 -30430.3 lineto
stroke
newpath
206411 -46551.4 moveto
206884 -47023.8 lineto
stroke
newpath
206884 -46551.4 moveto
206411 -47023.8 lineto
stroke
newpath
207003 -41504.9 moveto
207476 -41977.3 lineto
stroke
newpath
207476 -41504.9 moveto
207003 -41977.3 lineto
stroke
newpath
207500 -35826.8 moveto
207972 -36299.2 lineto
stroke
newpath
207972 -35826.8 moveto
207500 -36299.2 lineto
stroke
newpath
211439 -55440.4 moveto
211911 -55912.8 lineto
stroke
newpath
211911 -55440.4 moveto
211439 -55912.8 lineto
stroke
newpath
216436 -33760.3 moveto
216908 -34232.7 lineto
stroke
newpath
216908 -33760.3 moveto
216436 -34232.7 lineto
stroke
newpath
217227 -54880.4 moveto
217699 -55352.9 lineto
stroke
newpath
217699 -54880.4 moveto
217227 -55352.9 lineto
stroke
newpath
218247 -38683.7 moveto
218720 -39156.2 lineto
stroke
newpath
218720 -38683.7 moveto
218247 -39156.2 lineto
stroke
newpath
218477 -33179.9 moveto
218950 -33652.3 lineto
stroke
newpath
218950 -33179.9 moveto
218477 -33652.3 lineto
stroke
newpath
220904 -56100.1 moveto
221376 -56572.6 lineto
stroke
newpath
221376 -56100.1 moveto
220904 -56572.6 lineto
stroke
newpath
222020 -49565.8 moveto
222492 -50038.3 lineto
stroke
newpath
222492 -49565.8 moveto
222020 -50038.3 lineto
stroke
newpath
222029 -52730.3 moveto
222501 -53202.8 lineto
stroke
newpath
222501 -52730.3 moveto
222029 -53202.8 lineto
stroke
newpath
222236 -53840 moveto
222709 -54312.4 lineto
stroke
newpath
222709 -53840 moveto
222236 -54312.4 lineto
stroke
newpath
222937 -60443.9 moveto
223409 -60916.3 lineto
stroke
newpath
223409 -60443.9 moveto
222937 -60916.3 lineto
stroke
newpath
223373 -53989.6 moveto
223846 -54462.1 lineto
stroke
newpath
223846 -53989.6 moveto
223373 -54462.1 lineto
stroke
newpath
224261 -52959.5 moveto
224734 -53431.9 lineto
stroke
newpath
224734 -52959.5 moveto
224261 -53431.9 lineto
stroke
newpath
224579 -48976.9 moveto
225051 -49449.4 lineto
stroke
newpath
225051 -48976.9 moveto
224579 -49449.4 lineto
stroke
newpath
225416 -38600.7 moveto
225888 -39073.1 lineto
stroke
newpath
225888 -38600.7 moveto
225416 -39073.1 lineto
stroke
newpath
225547 -48649.3 moveto
226020 -49121.7 lineto
stroke
newpath
226020 -48649.3 moveto
225547 -49121.7 lineto
stroke
newpath
228397 -54776.1 moveto
228869 -55248.6 lineto
stroke
newpath
228869 -54776.1 moveto
228397 -55248.6 lineto
stroke
newpath
230625 -45210.3 moveto
231098 -45682.7 lineto
stroke
newpath
231098 -45210.3 moveto
230625 -45682.7 lineto
stroke
newpath
232107 -52224.5 moveto
232579 -52696.9 lineto
stroke
newpath
232579 -52224.5 moveto
232107 -52696.9 lineto
stroke
newpath
232356 -54309.9 moveto
232829 -54782.4 lineto
stroke
newpath
232829 -54309.9 moveto
232356 -54782.4 lineto
stroke
newpath
233149 -50483.5 moveto
233621 -50956 lineto
stroke
newpath
233621 -50483.5 moveto
233149 -50956 lineto
stroke
newpath
233744 -47797.5 moveto
234216 -48269.9 lineto
stroke
newpath
234216 -47797.5 moveto
233744 -48269.9 lineto
stroke
newpath
233774 -46655.6 moveto
234246 -47128 lineto
stroke
newpath
234246 -46655.6 moveto
233774 -47128 lineto
stroke
newpath
234543 -32926.7 moveto
235015 -33399.1 lineto
stroke
newpath
235015 -32926.7 moveto
234543 -33399.1 lineto
stroke
newpath
237516 -52966 moveto
237989 -53438.4 lineto
stroke
newpath
237989 -52966 moveto
237516 -53438.4 lineto
stroke
newpath
237911 -33802.3 moveto
238383 -34274.8 lineto
stroke
newpath
238383 -33802.3 moveto
237911 -34274.8 lineto
stroke
newpath
238806 -52862 moveto
239278 -53334.5 lineto
stroke
newpath
239278 -52862 moveto
238806 -53334.5 lineto
stroke
newpath
239015 -49007.6 moveto
239488 -49480.1 lineto
stroke
newpath
239488 -49007.6 moveto
239015 -49480.1 lineto
stroke
newpath
239643 -29301.9 moveto
240115 -29774.3 lineto
stroke
newpath
240115 -29301.9 moveto
239643 -29774.3 lineto
stroke
newpath
242046 -47033.6 moveto
242519 -47506.1 lineto
stroke
newpath
242519 -47033.6 moveto
242046 -47506.1 lineto
stroke
newpath
242128 -41646.6 moveto
242601 -42119.1 lineto
stroke
newpath
242601 -41646.6 moveto
242128 -42119.1 lineto
stroke
newpath
243089 -28902.5 moveto
243561 -29375 lineto
stroke
newpath
243561 -28902.5 moveto
243089 -29375 lineto
stroke
newpath
244967 -43113.2 moveto
245440 -43585.7 lineto
stroke
newpath
245440 -43113.2 moveto
244967 -43585.7 lineto
stroke
newpath
249116 -47063.2 moveto
249588 -47535.6 lineto
stroke
newpath
249588 -47063.2 moveto
249116 -47535.6 lineto
stroke
217081 -29029.5 295.276 cir0
newpath
216825 -28645.7 moveto
216825 -29413.4 lineto
stroke
newpath
217337 -28645.7 moveto
217337 -29413.4 lineto
stroke
217081 -29413.4 255.906 180 360 arc0
217081 -28645.7 255.906 0 180 arc0
225349 -29029.5 295.276 cir0
newpath
225093 -28645.7 moveto
225093 -29413.4 lineto
stroke
newpath
225605 -28645.7 moveto
225605 -29413.4 lineto
stroke
225349 -29413.4 255.906 180 360 arc0
225349 -28645.7 255.906 0 180 arc0
newpath
218262 -31893.7 moveto
218262 -32543.3 lineto
stroke
newpath
217937 -32218.5 moveto
218587 -32218.5 lineto
stroke
newpath
218439 -31933.1 moveto
218085 -31933.1 lineto
stroke
newpath
218439 -32503.9 moveto
218085 -32503.9 lineto
stroke
218085 -32218.5 285.433 450 630 arc0
218439 -32218.5 285.433 270 450 arc0
newpath
224168 -31893.7 moveto
224168 -32543.3 lineto
stroke
newpath
223843 -32218.5 moveto
224493 -32218.5 lineto
stroke
newpath
224345 -31933.1 moveto
223991 -31933.1 lineto
stroke
newpath
224345 -32503.9 moveto
223991 -32503.9 lineto
stroke
223991 -32218.5 285.433 450 630 arc0
224345 -32218.5 285.433 270 450 arc0
newpath
180884 -30042.7 moveto
180884 -28205.3 lineto
179046 -28205.3 lineto
179046 -30042.7 lineto
180884 -30042.7 lineto
poly0
newpath
180884 -61542.7 moveto
180884 -59705.3 lineto
179046 -59705.3 lineto
179046 -61542.7 lineto
180884 -61542.7 lineto
poly0
newpath
255884 -30042.7 moveto
255884 -28205.3 lineto
254046 -28205.3 lineto
254046 -30042.7 lineto
255884 -30042.7 lineto
poly0
newpath
255884 -61542.7 moveto
255884 -59705.3 lineto
254046 -59705.3 lineto
254046 -61542.7 lineto
255884 -61542.7 lineto
poly0
118.11 setlinewidth
newpath
59533.6 56042.5 moveto
59533.6 57223.6 lineto
59814.8 57223.6 lineto
59983.6 57167.3 lineto
60096 57054.9 lineto
60152.3 56942.4 lineto
60208.5 56717.4 lineto
60208.5 56548.7 lineto
60152.3 56323.7 lineto
60096 56211.2 lineto
59983.6 56098.7 lineto
59814.8 56042.5 lineto
59533.6 56042.5 lineto
stroke
newpath
60714.7 56042.5 moveto
60714.7 56829.9 lineto
stroke
newpath
60714.7 56604.9 moveto
60771 56717.4 lineto
60827.2 56773.6 lineto
60939.7 56829.9 lineto
61052.2 56829.9 lineto
stroke
newpath
61445.9 56042.5 moveto
61445.9 56829.9 lineto
stroke
newpath
61445.9 57223.6 moveto
61389.6 57167.3 lineto
61445.9 57111.1 lineto
61502.1 57167.3 lineto
61445.9 57223.6 lineto
61445.9 57111.1 lineto
stroke
newpath
62177 56042.5 moveto
62064.6 56098.7 lineto
62008.3 56211.2 lineto
62008.3 57223.6 lineto
stroke
newpath
62795.7 56042.5 moveto
62683.2 56098.7 lineto
62627 56211.2 lineto
62627 57223.6 lineto
stroke
newpath
64145.5 56042.5 moveto
64145.5 57223.6 lineto
64539.2 56379.9 lineto
64932.9 57223.6 lineto
64932.9 56042.5 lineto
stroke
newpath
66001.6 56042.5 moveto
66001.6 56661.2 lineto
65945.3 56773.6 lineto
65832.8 56829.9 lineto
65607.9 56829.9 lineto
65495.4 56773.6 lineto
stroke
newpath
66001.6 56098.7 moveto
65889.1 56042.5 lineto
65607.9 56042.5 lineto
65495.4 56098.7 lineto
65439.1 56211.2 lineto
65439.1 56323.7 lineto
65495.4 56436.2 lineto
65607.9 56492.4 lineto
65889.1 56492.4 lineto
66001.6 56548.7 lineto
stroke
newpath
66564 56829.9 moveto
66564 55648.8 lineto
stroke
newpath
66564 56773.6 moveto
66676.5 56829.9 lineto
66901.4 56829.9 lineto
67013.9 56773.6 lineto
67070.2 56717.4 lineto
67126.4 56604.9 lineto
67126.4 56267.5 lineto
67070.2 56155 lineto
67013.9 56098.7 lineto
66901.4 56042.5 lineto
66676.5 56042.5 lineto
66564 56098.7 lineto
stroke
newpath
67632.6 56155 moveto
67688.8 56098.7 lineto
67632.6 56042.5 lineto
67576.4 56098.7 lineto
67632.6 56155 lineto
67632.6 56042.5 lineto
stroke
newpath
67632.6 56773.6 moveto
67688.8 56717.4 lineto
67632.6 56661.2 lineto
67576.4 56717.4 lineto
67632.6 56773.6 lineto
67632.6 56661.2 lineto
stroke
newpath
57992.6 54332.7 moveto
58465 53860.3 lineto
stroke
newpath
58465 54332.7 moveto
57992.6 53860.3 lineto
stroke
newpath
59758.6 54743.3 moveto
59871.1 54743.3 lineto
59983.6 54687 lineto
60039.8 54630.8 lineto
60096 54518.3 lineto
60152.3 54293.3 lineto
60152.3 54012.1 lineto
60096 53787.1 lineto
60039.8 53674.7 lineto
59983.6 53618.4 lineto
59871.1 53562.2 lineto
59758.6 53562.2 lineto
59646.1 53618.4 lineto
59589.9 53674.7 lineto
59533.6 53787.1 lineto
59477.4 54012.1 lineto
59477.4 54293.3 lineto
59533.6 54518.3 lineto
59589.9 54630.8 lineto
59646.1 54687 lineto
59758.6 54743.3 lineto
stroke
newpath
60658.5 53674.7 moveto
60714.7 53618.4 lineto
60658.5 53562.2 lineto
60602.2 53618.4 lineto
60658.5 53674.7 lineto
60658.5 53562.2 lineto
stroke
newpath
61727.1 54349.6 moveto
61727.1 53562.2 lineto
stroke
newpath
61445.9 54799.5 moveto
61164.7 53955.9 lineto
61895.8 53955.9 lineto
stroke
newpath
62570.7 54743.3 moveto
62683.2 54743.3 lineto
62795.7 54687 lineto
62852 54630.8 lineto
62908.2 54518.3 lineto
62964.4 54293.3 lineto
62964.4 54012.1 lineto
62908.2 53787.1 lineto
62852 53674.7 lineto
62795.7 53618.4 lineto
62683.2 53562.2 lineto
62570.7 53562.2 lineto
62458.3 53618.4 lineto
62402 53674.7 lineto
62345.8 53787.1 lineto
62289.5 54012.1 lineto
62289.5 54293.3 lineto
62345.8 54518.3 lineto
62402 54630.8 lineto
62458.3 54687 lineto
62570.7 54743.3 lineto
stroke
newpath
63470.6 53562.2 moveto
63470.6 54349.6 lineto
stroke
newpath
63470.6 54237.1 moveto
63526.9 54293.3 lineto
63639.4 54349.6 lineto
63808.1 54349.6 lineto
63920.6 54293.3 lineto
63976.8 54180.8 lineto
63976.8 53562.2 lineto
stroke
newpath
63976.8 54180.8 moveto
64033.1 54293.3 lineto
64145.5 54349.6 lineto
64314.3 54349.6 lineto
64426.8 54293.3 lineto
64483 54180.8 lineto
64483 53562.2 lineto
stroke
newpath
65045.4 53562.2 moveto
65045.4 54349.6 lineto
stroke
newpath
65045.4 54237.1 moveto
65101.7 54293.3 lineto
65214.2 54349.6 lineto
65382.9 54349.6 lineto
65495.4 54293.3 lineto
65551.6 54180.8 lineto
65551.6 53562.2 lineto
stroke
newpath
65551.6 54180.8 moveto
65607.9 54293.3 lineto
65720.3 54349.6 lineto
65889.1 54349.6 lineto
66001.6 54293.3 lineto
66057.8 54180.8 lineto
66057.8 53562.2 lineto
stroke
newpath
68363.8 54799.5 moveto
67351.4 53280.9 lineto
stroke
newpath
69882.3 54743.3 moveto
69994.8 54743.3 lineto
70107.3 54687 lineto
70163.5 54630.8 lineto
70219.8 54518.3 lineto
70276 54293.3 lineto
70276 54012.1 lineto
70219.8 53787.1 lineto
70163.5 53674.7 lineto
70107.3 53618.4 lineto
69994.8 53562.2 lineto
69882.3 53562.2 lineto
69769.8 53618.4 lineto
69713.6 53674.7 lineto
69657.4 53787.1 lineto
69601.1 54012.1 lineto
69601.1 54293.3 lineto
69657.4 54518.3 lineto
69713.6 54630.8 lineto
69769.8 54687 lineto
69882.3 54743.3 lineto
stroke
newpath
70782.2 53674.7 moveto
70838.5 53618.4 lineto
70782.2 53562.2 lineto
70726 53618.4 lineto
70782.2 53674.7 lineto
70782.2 53562.2 lineto
stroke
newpath
71569.6 54743.3 moveto
71682.1 54743.3 lineto
71794.6 54687 lineto
71850.8 54630.8 lineto
71907.1 54518.3 lineto
71963.3 54293.3 lineto
71963.3 54012.1 lineto
71907.1 53787.1 lineto
71850.8 53674.7 lineto
71794.6 53618.4 lineto
71682.1 53562.2 lineto
71569.6 53562.2 lineto
71457.1 53618.4 lineto
71400.9 53674.7 lineto
71344.6 53787.1 lineto
71288.4 54012.1 lineto
71288.4 54293.3 lineto
71344.6 54518.3 lineto
71400.9 54630.8 lineto
71457.1 54687 lineto
71569.6 54743.3 lineto
stroke
newpath
73088.2 53562.2 moveto
72413.3 53562.2 lineto
stroke
newpath
72750.7 53562.2 moveto
72750.7 54743.3 lineto
72638.2 54574.5 lineto
72525.7 54462.1 lineto
72413.3 54405.8 lineto
stroke
newpath
74100.5 54743.3 moveto
73875.6 54743.3 lineto
73763.1 54687 lineto
73706.8 54630.8 lineto
73594.4 54462.1 lineto
73538.1 54237.1 lineto
73538.1 53787.1 lineto
73594.4 53674.7 lineto
73650.6 53618.4 lineto
73763.1 53562.2 lineto
73988.1 53562.2 lineto
74100.5 53618.4 lineto
74156.8 53674.7 lineto
74213 53787.1 lineto
74213 54068.4 lineto
74156.8 54180.8 lineto
74100.5 54237.1 lineto
73988.1 54293.3 lineto
73763.1 54293.3 lineto
73650.6 54237.1 lineto
73594.4 54180.8 lineto
73538.1 54068.4 lineto
stroke
newpath
74663 54743.3 moveto
74663 54518.3 lineto
stroke
newpath
75112.9 54743.3 moveto
75112.9 54518.3 lineto
stroke
newpath
76856.5 53112.2 moveto
76800.2 53168.5 lineto
76687.7 53337.2 lineto
76631.5 53449.7 lineto
76575.2 53618.4 lineto
76519 53899.6 lineto
76519 54124.6 lineto
76575.2 54405.8 lineto
76631.5 54574.5 lineto
76687.7 54687 lineto
76800.2 54855.8 lineto
76856.5 54912 lineto
stroke
newpath
77812.6 54349.6 moveto
77812.6 53562.2 lineto
stroke
newpath
77531.4 54799.5 moveto
77250.2 53955.9 lineto
77981.3 53955.9 lineto
stroke
newpath
78937.4 54743.3 moveto
78712.5 54743.3 lineto
78600 54687 lineto
78543.7 54630.8 lineto
78431.3 54462.1 lineto
78375 54237.1 lineto
78375 53787.1 lineto
78431.3 53674.7 lineto
78487.5 53618.4 lineto
78600 53562.2 lineto
78825 53562.2 lineto
78937.4 53618.4 lineto
78993.7 53674.7 lineto
79049.9 53787.1 lineto
79049.9 54068.4 lineto
78993.7 54180.8 lineto
78937.4 54237.1 lineto
78825 54293.3 lineto
78600 54293.3 lineto
78487.5 54237.1 lineto
78431.3 54180.8 lineto
78375 54068.4 lineto
stroke
newpath
80456 53562.2 moveto
80456 54743.3 lineto
stroke
newpath
80962.2 53562.2 moveto
80962.2 54180.8 lineto
80905.9 54293.3 lineto
80793.5 54349.6 lineto
80624.7 54349.6 lineto
80512.2 54293.3 lineto
80456 54237.1 lineto
stroke
newpath
81693.3 53562.2 moveto
81580.9 53618.4 lineto
81524.6 53674.7 lineto
81468.4 53787.1 lineto
81468.4 54124.6 lineto
81524.6 54237.1 lineto
81580.9 54293.3 lineto
81693.3 54349.6 lineto
81862.1 54349.6 lineto
81974.6 54293.3 lineto
82030.8 54237.1 lineto
82087 54124.6 lineto
82087 53787.1 lineto
82030.8 53674.7 lineto
81974.6 53618.4 lineto
81862.1 53562.2 lineto
81693.3 53562.2 lineto
stroke
newpath
82762 53562.2 moveto
82649.5 53618.4 lineto
82593.2 53730.9 lineto
82593.2 54743.3 lineto
stroke
newpath
83661.9 53618.4 moveto
83549.4 53562.2 lineto
83324.4 53562.2 lineto
83211.9 53618.4 lineto
83155.7 53730.9 lineto
83155.7 54180.8 lineto
83211.9 54293.3 lineto
83324.4 54349.6 lineto
83549.4 54349.6 lineto
83661.9 54293.3 lineto
83718.1 54180.8 lineto
83718.1 54068.4 lineto
83155.7 53955.9 lineto
stroke
newpath
84168 53618.4 moveto
84280.5 53562.2 lineto
84505.5 53562.2 lineto
84618 53618.4 lineto
84674.2 53730.9 lineto
84674.2 53787.1 lineto
84618 53899.6 lineto
84505.5 53955.9 lineto
84336.8 53955.9 lineto
84224.3 54012.1 lineto
84168 54124.6 lineto
84168 54180.8 lineto
84224.3 54293.3 lineto
84336.8 54349.6 lineto
84505.5 54349.6 lineto
84618 54293.3 lineto
stroke
newpath
85067.9 53112.2 moveto
85124.2 53168.5 lineto
85236.7 53337.2 lineto
85292.9 53449.7 lineto
85349.1 53618.4 lineto
85405.4 53899.6 lineto
85405.4 54124.6 lineto
85349.1 54405.8 lineto
85292.9 54574.5 lineto
85236.7 54687 lineto
85124.2 54855.8 lineto
85067.9 54912 lineto
stroke
58169.7 52537.4 295.276 cir0
newpath
59758.6 53184.2 moveto
59871.1 53184.2 lineto
59983.6 53128 lineto
60039.8 53071.7 lineto
60096 52959.2 lineto
60152.3 52734.3 lineto
60152.3 52453.1 lineto
60096 52228.1 lineto
60039.8 52115.6 lineto
59983.6 52059.4 lineto
59871.1 52003.1 lineto
59758.6 52003.1 lineto
59646.1 52059.4 lineto
59589.9 52115.6 lineto
59533.6 52228.1 lineto
59477.4 52453.1 lineto
59477.4 52734.3 lineto
59533.6 52959.2 lineto
59589.9 53071.7 lineto
59646.1 53128 lineto
59758.6 53184.2 lineto
stroke
newpath
60658.5 52115.6 moveto
60714.7 52059.4 lineto
60658.5 52003.1 lineto
60602.2 52059.4 lineto
60658.5 52115.6 lineto
60658.5 52003.1 lineto
stroke
newpath
61783.3 53184.2 moveto
61220.9 53184.2 lineto
61164.7 52621.8 lineto
61220.9 52678 lineto
61333.4 52734.3 lineto
61614.6 52734.3 lineto
61727.1 52678 lineto
61783.3 52621.8 lineto
61839.6 52509.3 lineto
61839.6 52228.1 lineto
61783.3 52115.6 lineto
61727.1 52059.4 lineto
61614.6 52003.1 lineto
61333.4 52003.1 lineto
61220.9 52059.4 lineto
61164.7 52115.6 lineto
stroke
newpath
62570.7 53184.2 moveto
62683.2 53184.2 lineto
62795.7 53128 lineto
62852 53071.7 lineto
62908.2 52959.2 lineto
62964.4 52734.3 lineto
62964.4 52453.1 lineto
62908.2 52228.1 lineto
62852 52115.6 lineto
62795.7 52059.4 lineto
62683.2 52003.1 lineto
62570.7 52003.1 lineto
62458.3 52059.4 lineto
62402 52115.6 lineto
62345.8 52228.1 lineto
62289.5 52453.1 lineto
62289.5 52734.3 lineto
62345.8 52959.2 lineto
62402 53071.7 lineto
62458.3 53128 lineto
62570.7 53184.2 lineto
stroke
newpath
63470.6 52003.1 moveto
63470.6 52790.5 lineto
stroke
newpath
63470.6 52678 moveto
63526.9 52734.3 lineto
63639.4 52790.5 lineto
63808.1 52790.5 lineto
63920.6 52734.3 lineto
63976.8 52621.8 lineto
63976.8 52003.1 lineto
stroke
newpath
63976.8 52621.8 moveto
64033.1 52734.3 lineto
64145.5 52790.5 lineto
64314.3 52790.5 lineto
64426.8 52734.3 lineto
64483 52621.8 lineto
64483 52003.1 lineto
stroke
newpath
65045.4 52003.1 moveto
65045.4 52790.5 lineto
stroke
newpath
65045.4 52678 moveto
65101.7 52734.3 lineto
65214.2 52790.5 lineto
65382.9 52790.5 lineto
65495.4 52734.3 lineto
65551.6 52621.8 lineto
65551.6 52003.1 lineto
stroke
newpath
65551.6 52621.8 moveto
65607.9 52734.3 lineto
65720.3 52790.5 lineto
65889.1 52790.5 lineto
66001.6 52734.3 lineto
66057.8 52621.8 lineto
66057.8 52003.1 lineto
stroke
newpath
68363.8 53240.5 moveto
67351.4 51721.9 lineto
stroke
newpath
69882.3 53184.2 moveto
69994.8 53184.2 lineto
70107.3 53128 lineto
70163.5 53071.7 lineto
70219.8 52959.2 lineto
70276 52734.3 lineto
70276 52453.1 lineto
70219.8 52228.1 lineto
70163.5 52115.6 lineto
70107.3 52059.4 lineto
69994.8 52003.1 lineto
69882.3 52003.1 lineto
69769.8 52059.4 lineto
69713.6 52115.6 lineto
69657.4 52228.1 lineto
69601.1 52453.1 lineto
69601.1 52734.3 lineto
69657.4 52959.2 lineto
69713.6 53071.7 lineto
69769.8 53128 lineto
69882.3 53184.2 lineto
stroke
newpath
70782.2 52115.6 moveto
70838.5 52059.4 lineto
70782.2 52003.1 lineto
70726 52059.4 lineto
70782.2 52115.6 lineto
70782.2 52003.1 lineto
stroke
newpath
71569.6 53184.2 moveto
71682.1 53184.2 lineto
71794.6 53128 lineto
71850.8 53071.7 lineto
71907.1 52959.2 lineto
71963.3 52734.3 lineto
71963.3 52453.1 lineto
71907.1 52228.1 lineto
71850.8 52115.6 lineto
71794.6 52059.4 lineto
71682.1 52003.1 lineto
71569.6 52003.1 lineto
71457.1 52059.4 lineto
71400.9 52115.6 lineto
71344.6 52228.1 lineto
71288.4 52453.1 lineto
71288.4 52734.3 lineto
71344.6 52959.2 lineto
71400.9 53071.7 lineto
71457.1 53128 lineto
71569.6 53184.2 lineto
stroke
newpath
72413.3 53071.7 moveto
72469.5 53128 lineto
72582 53184.2 lineto
72863.2 53184.2 lineto
72975.7 53128 lineto
73031.9 53071.7 lineto
73088.2 52959.2 lineto
73088.2 52846.8 lineto
73031.9 52678 lineto
72357 52003.1 lineto
73088.2 52003.1 lineto
stroke
newpath
73819.3 53184.2 moveto
73931.8 53184.2 lineto
74044.3 53128 lineto
74100.5 53071.7 lineto
74156.8 52959.2 lineto
74213 52734.3 lineto
74213 52453.1 lineto
74156.8 52228.1 lineto
74100.5 52115.6 lineto
74044.3 52059.4 lineto
73931.8 52003.1 lineto
73819.3 52003.1 lineto
73706.8 52059.4 lineto
73650.6 52115.6 lineto
73594.4 52228.1 lineto
73538.1 52453.1 lineto
73538.1 52734.3 lineto
73594.4 52959.2 lineto
73650.6 53071.7 lineto
73706.8 53128 lineto
73819.3 53184.2 lineto
stroke
newpath
74663 53184.2 moveto
74663 52959.2 lineto
stroke
newpath
75112.9 53184.2 moveto
75112.9 52959.2 lineto
stroke
newpath
76856.5 51553.2 moveto
76800.2 51609.4 lineto
76687.7 51778.1 lineto
76631.5 51890.6 lineto
76575.2 52059.4 lineto
76519 52340.6 lineto
76519 52565.5 lineto
76575.2 52846.8 lineto
76631.5 53015.5 lineto
76687.7 53128 lineto
76800.2 53296.7 lineto
76856.5 53352.9 lineto
stroke
newpath
77531.4 53184.2 moveto
77643.9 53184.2 lineto
77756.3 53128 lineto
77812.6 53071.7 lineto
77868.8 52959.2 lineto
77925.1 52734.3 lineto
77925.1 52453.1 lineto
77868.8 52228.1 lineto
77812.6 52115.6 lineto
77756.3 52059.4 lineto
77643.9 52003.1 lineto
77531.4 52003.1 lineto
77418.9 52059.4 lineto
77362.6 52115.6 lineto
77306.4 52228.1 lineto
77250.2 52453.1 lineto
77250.2 52734.3 lineto
77306.4 52959.2 lineto
77362.6 53071.7 lineto
77418.9 53128 lineto
77531.4 53184.2 lineto
stroke
newpath
79331.1 52003.1 moveto
79331.1 53184.2 lineto
stroke
newpath
79837.3 52003.1 moveto
79837.3 52621.8 lineto
79781.1 52734.3 lineto
79668.6 52790.5 lineto
79499.9 52790.5 lineto
79387.4 52734.3 lineto
79331.1 52678 lineto
stroke
newpath
80568.5 52003.1 moveto
80456 52059.4 lineto
80399.8 52115.6 lineto
80343.5 52228.1 lineto
80343.5 52565.5 lineto
80399.8 52678 lineto
80456 52734.3 lineto
80568.5 52790.5 lineto
80737.2 52790.5 lineto
80849.7 52734.3 lineto
80905.9 52678 lineto
80962.2 52565.5 lineto
80962.2 52228.1 lineto
80905.9 52115.6 lineto
80849.7 52059.4 lineto
80737.2 52003.1 lineto
80568.5 52003.1 lineto
stroke
newpath
81637.1 52003.1 moveto
81524.6 52059.4 lineto
81468.4 52171.8 lineto
81468.4 53184.2 lineto
stroke
newpath
82537 52059.4 moveto
82424.5 52003.1 lineto
82199.5 52003.1 lineto
82087 52059.4 lineto
82030.8 52171.8 lineto
82030.8 52621.8 lineto
82087 52734.3 lineto
82199.5 52790.5 lineto
82424.5 52790.5 lineto
82537 52734.3 lineto
82593.2 52621.8 lineto
82593.2 52509.3 lineto
82030.8 52396.8 lineto
stroke
newpath
83043.2 52059.4 moveto
83155.7 52003.1 lineto
83380.6 52003.1 lineto
83493.1 52059.4 lineto
83549.4 52171.8 lineto
83549.4 52228.1 lineto
83493.1 52340.6 lineto
83380.6 52396.8 lineto
83211.9 52396.8 lineto
83099.4 52453.1 lineto
83043.2 52565.5 lineto
83043.2 52621.8 lineto
83099.4 52734.3 lineto
83211.9 52790.5 lineto
83380.6 52790.5 lineto
83493.1 52734.3 lineto
stroke
newpath
84955.4 52453.1 moveto
85855.3 52453.1 lineto
stroke
newpath
85405.4 52003.1 moveto
85405.4 52903 lineto
stroke
newpath
87261.4 53071.7 moveto
87317.6 53128 lineto
87430.1 53184.2 lineto
87711.3 53184.2 lineto
87823.8 53128 lineto
87880.1 53071.7 lineto
87936.3 52959.2 lineto
87936.3 52846.8 lineto
87880.1 52678 lineto
87205.2 52003.1 lineto
87936.3 52003.1 lineto
stroke
newpath
89286.1 52059.4 moveto
89398.6 52003.1 lineto
89623.6 52003.1 lineto
89736.1 52059.4 lineto
89792.3 52171.8 lineto
89792.3 52228.1 lineto
89736.1 52340.6 lineto
89623.6 52396.8 lineto
89454.9 52396.8 lineto
89342.4 52453.1 lineto
89286.1 52565.5 lineto
89286.1 52621.8 lineto
89342.4 52734.3 lineto
89454.9 52790.5 lineto
89623.6 52790.5 lineto
89736.1 52734.3 lineto
stroke
newpath
90467.3 52003.1 moveto
90354.8 52059.4 lineto
90298.5 52171.8 lineto
90298.5 53184.2 lineto
stroke
newpath
91085.9 52003.1 moveto
90973.4 52059.4 lineto
90917.2 52115.6 lineto
90861 52228.1 lineto
90861 52565.5 lineto
90917.2 52678 lineto
90973.4 52734.3 lineto
91085.9 52790.5 lineto
91254.7 52790.5 lineto
91367.1 52734.3 lineto
91423.4 52678 lineto
91479.6 52565.5 lineto
91479.6 52228.1 lineto
91423.4 52115.6 lineto
91367.1 52059.4 lineto
91254.7 52003.1 lineto
91085.9 52003.1 lineto
stroke
newpath
91817.1 52790.5 moveto
92267 52790.5 lineto
stroke
newpath
91985.8 53184.2 moveto
91985.8 52171.8 lineto
92042.1 52059.4 lineto
92154.5 52003.1 lineto
92267 52003.1 lineto
stroke
newpath
92604.5 52059.4 moveto
92717 52003.1 lineto
92941.9 52003.1 lineto
93054.4 52059.4 lineto
93110.7 52171.8 lineto
93110.7 52228.1 lineto
93054.4 52340.6 lineto
92941.9 52396.8 lineto
92773.2 52396.8 lineto
92660.7 52453.1 lineto
92604.5 52565.5 lineto
92604.5 52621.8 lineto
92660.7 52734.3 lineto
92773.2 52790.5 lineto
92941.9 52790.5 lineto
93054.4 52734.3 lineto
stroke
newpath
93504.4 51553.2 moveto
93560.6 51609.4 lineto
93673.1 51778.1 lineto
93729.3 51890.6 lineto
93785.6 52059.4 lineto
93841.8 52340.6 lineto
93841.8 52565.5 lineto
93785.6 52846.8 lineto
93729.3 53015.5 lineto
93673.1 53128 lineto
93560.6 53296.7 lineto
93504.4 53352.9 lineto
stroke
newpath
58140.2 51303.2 moveto
58140.2 50653.6 lineto
stroke
newpath
57815.4 50978.4 moveto
58465 50978.4 lineto
stroke
newpath
59758.6 51625.2 moveto
59871.1 51625.2 lineto
59983.6 51568.9 lineto
60039.8 51512.7 lineto
60096 51400.2 lineto
60152.3 51175.2 lineto
60152.3 50894 lineto
60096 50669 lineto
60039.8 50556.5 lineto
59983.6 50500.3 lineto
59871.1 50444.1 lineto
59758.6 50444.1 lineto
59646.1 50500.3 lineto
59589.9 50556.5 lineto
59533.6 50669 lineto
59477.4 50894 lineto
59477.4 51175.2 lineto
59533.6 51400.2 lineto
59589.9 51512.7 lineto
59646.1 51568.9 lineto
59758.6 51625.2 lineto
stroke
newpath
60658.5 50556.5 moveto
60714.7 50500.3 lineto
60658.5 50444.1 lineto
60602.2 50500.3 lineto
60658.5 50556.5 lineto
60658.5 50444.1 lineto
stroke
newpath
61783.3 51625.2 moveto
61220.9 51625.2 lineto
61164.7 51062.7 lineto
61220.9 51119 lineto
61333.4 51175.2 lineto
61614.6 51175.2 lineto
61727.1 51119 lineto
61783.3 51062.7 lineto
61839.6 50950.2 lineto
61839.6 50669 lineto
61783.3 50556.5 lineto
61727.1 50500.3 lineto
61614.6 50444.1 lineto
61333.4 50444.1 lineto
61220.9 50500.3 lineto
61164.7 50556.5 lineto
stroke
newpath
62908.2 51625.2 moveto
62345.8 51625.2 lineto
62289.5 51062.7 lineto
62345.8 51119 lineto
62458.3 51175.2 lineto
62739.5 51175.2 lineto
62852 51119 lineto
62908.2 51062.7 lineto
62964.4 50950.2 lineto
62964.4 50669 lineto
62908.2 50556.5 lineto
62852 50500.3 lineto
62739.5 50444.1 lineto
62458.3 50444.1 lineto
62345.8 50500.3 lineto
62289.5 50556.5 lineto
stroke
newpath
63470.6 50444.1 moveto
63470.6 51231.5 lineto
stroke
newpath
63470.6 51119 moveto
63526.9 51175.2 lineto
63639.4 51231.5 lineto
63808.1 51231.5 lineto
63920.6 51175.2 lineto
63976.8 51062.7 lineto
63976.8 50444.1 lineto
stroke
newpath
63976.8 51062.7 moveto
64033.1 51175.2 lineto
64145.5 51231.5 lineto
64314.3 51231.5 lineto
64426.8 51175.2 lineto
64483 51062.7 lineto
64483 50444.1 lineto
stroke
newpath
65045.4 50444.1 moveto
65045.4 51231.5 lineto
stroke
newpath
65045.4 51119 moveto
65101.7 51175.2 lineto
65214.2 51231.5 lineto
65382.9 51231.5 lineto
65495.4 51175.2 lineto
65551.6 51062.7 lineto
65551.6 50444.1 lineto
stroke
newpath
65551.6 51062.7 moveto
65607.9 51175.2 lineto
65720.3 51231.5 lineto
65889.1 51231.5 lineto
66001.6 51175.2 lineto
66057.8 51062.7 lineto
66057.8 50444.1 lineto
stroke
newpath
68363.8 51681.4 moveto
67351.4 50162.8 lineto
stroke
newpath
69882.3 51625.2 moveto
69994.8 51625.2 lineto
70107.3 51568.9 lineto
70163.5 51512.7 lineto
70219.8 51400.2 lineto
70276 51175.2 lineto
70276 50894 lineto
70219.8 50669 lineto
70163.5 50556.5 lineto
70107.3 50500.3 lineto
69994.8 50444.1 lineto
69882.3 50444.1 lineto
69769.8 50500.3 lineto
69713.6 50556.5 lineto
69657.4 50669 lineto
69601.1 50894 lineto
69601.1 51175.2 lineto
69657.4 51400.2 lineto
69713.6 51512.7 lineto
69769.8 51568.9 lineto
69882.3 51625.2 lineto
stroke
newpath
70782.2 50556.5 moveto
70838.5 50500.3 lineto
70782.2 50444.1 lineto
70726 50500.3 lineto
70782.2 50556.5 lineto
70782.2 50444.1 lineto
stroke
newpath
71569.6 51625.2 moveto
71682.1 51625.2 lineto
71794.6 51568.9 lineto
71850.8 51512.7 lineto
71907.1 51400.2 lineto
71963.3 51175.2 lineto
71963.3 50894 lineto
71907.1 50669 lineto
71850.8 50556.5 lineto
71794.6 50500.3 lineto
71682.1 50444.1 lineto
71569.6 50444.1 lineto
71457.1 50500.3 lineto
71400.9 50556.5 lineto
71344.6 50669 lineto
71288.4 50894 lineto
71288.4 51175.2 lineto
71344.6 51400.2 lineto
71400.9 51512.7 lineto
71457.1 51568.9 lineto
71569.6 51625.2 lineto
stroke
newpath
72413.3 51512.7 moveto
72469.5 51568.9 lineto
72582 51625.2 lineto
72863.2 51625.2 lineto
72975.7 51568.9 lineto
73031.9 51512.7 lineto
73088.2 51400.2 lineto
73088.2 51287.7 lineto
73031.9 51119 lineto
72357 50444.1 lineto
73088.2 50444.1 lineto
stroke
newpath
73538.1 51512.7 moveto
73594.4 51568.9 lineto
73706.8 51625.2 lineto
73988.1 51625.2 lineto
74100.5 51568.9 lineto
74156.8 51512.7 lineto
74213 51400.2 lineto
74213 51287.7 lineto
74156.8 51119 lineto
73481.9 50444.1 lineto
74213 50444.1 lineto
stroke
newpath
74663 51625.2 moveto
74663 51400.2 lineto
stroke
newpath
75112.9 51625.2 moveto
75112.9 51400.2 lineto
stroke
newpath
76856.5 49994.1 moveto
76800.2 50050.4 lineto
76687.7 50219.1 lineto
76631.5 50331.6 lineto
76575.2 50500.3 lineto
76519 50781.5 lineto
76519 51006.5 lineto
76575.2 51287.7 lineto
76631.5 51456.4 lineto
76687.7 51568.9 lineto
76800.2 51737.6 lineto
76856.5 51793.9 lineto
stroke
newpath
77531.4 51625.2 moveto
77643.9 51625.2 lineto
77756.3 51568.9 lineto
77812.6 51512.7 lineto
77868.8 51400.2 lineto
77925.1 51175.2 lineto
77925.1 50894 lineto
77868.8 50669 lineto
77812.6 50556.5 lineto
77756.3 50500.3 lineto
77643.9 50444.1 lineto
77531.4 50444.1 lineto
77418.9 50500.3 lineto
77362.6 50556.5 lineto
77306.4 50669 lineto
77250.2 50894 lineto
77250.2 51175.2 lineto
77306.4 51400.2 lineto
77362.6 51512.7 lineto
77418.9 51568.9 lineto
77531.4 51625.2 lineto
stroke
newpath
79331.1 50444.1 moveto
79331.1 51625.2 lineto
stroke
newpath
79837.3 50444.1 moveto
79837.3 51062.7 lineto
79781.1 51175.2 lineto
79668.6 51231.5 lineto
79499.9 51231.5 lineto
79387.4 51175.2 lineto
79331.1 51119 lineto
stroke
newpath
80568.5 50444.1 moveto
80456 50500.3 lineto
80399.8 50556.5 lineto
80343.5 50669 lineto
80343.5 51006.5 lineto
80399.8 51119 lineto
80456 51175.2 lineto
80568.5 51231.5 lineto
80737.2 51231.5 lineto
80849.7 51175.2 lineto
80905.9 51119 lineto
80962.2 51006.5 lineto
80962.2 50669 lineto
80905.9 50556.5 lineto
80849.7 50500.3 lineto
80737.2 50444.1 lineto
80568.5 50444.1 lineto
stroke
newpath
81637.1 50444.1 moveto
81524.6 50500.3 lineto
81468.4 50612.8 lineto
81468.4 51625.2 lineto
stroke
newpath
82537 50500.3 moveto
82424.5 50444.1 lineto
82199.5 50444.1 lineto
82087 50500.3 lineto
82030.8 50612.8 lineto
82030.8 51062.7 lineto
82087 51175.2 lineto
82199.5 51231.5 lineto
82424.5 51231.5 lineto
82537 51175.2 lineto
82593.2 51062.7 lineto
82593.2 50950.2 lineto
82030.8 50837.8 lineto
stroke
newpath
83043.2 50500.3 moveto
83155.7 50444.1 lineto
83380.6 50444.1 lineto
83493.1 50500.3 lineto
83549.4 50612.8 lineto
83549.4 50669 lineto
83493.1 50781.5 lineto
83380.6 50837.8 lineto
83211.9 50837.8 lineto
83099.4 50894 lineto
83043.2 51006.5 lineto
83043.2 51062.7 lineto
83099.4 51175.2 lineto
83211.9 51231.5 lineto
83380.6 51231.5 lineto
83493.1 51175.2 lineto
stroke
newpath
84955.4 50894 moveto
85855.3 50894 lineto
stroke
newpath
85405.4 50444.1 moveto
85405.4 51343.9 lineto
stroke
newpath
87261.4 51512.7 moveto
87317.6 51568.9 lineto
87430.1 51625.2 lineto
87711.3 51625.2 lineto
87823.8 51568.9 lineto
87880.1 51512.7 lineto
87936.3 51400.2 lineto
87936.3 51287.7 lineto
87880.1 51119 lineto
87205.2 50444.1 lineto
87936.3 50444.1 lineto
stroke
newpath
89286.1 50500.3 moveto
89398.6 50444.1 lineto
89623.6 50444.1 lineto
89736.1 50500.3 lineto
89792.3 50612.8 lineto
89792.3 50669 lineto
89736.1 50781.5 lineto
89623.6 50837.8 lineto
89454.9 50837.8 lineto
89342.4 50894 lineto
89286.1 51006.5 lineto
89286.1 51062.7 lineto
89342.4 51175.2 lineto
89454.9 51231.5 lineto
89623.6 51231.5 lineto
89736.1 51175.2 lineto
stroke
newpath
90467.3 50444.1 moveto
90354.8 50500.3 lineto
90298.5 50612.8 lineto
90298.5 51625.2 lineto
stroke
newpath
91085.9 50444.1 moveto
90973.4 50500.3 lineto
90917.2 50556.5 lineto
90861 50669 lineto
90861 51006.5 lineto
90917.2 51119 lineto
90973.4 51175.2 lineto
91085.9 51231.5 lineto
91254.7 51231.5 lineto
91367.1 51175.2 lineto
91423.4 51119 lineto
91479.6 51006.5 lineto
91479.6 50669 lineto
91423.4 50556.5 lineto
91367.1 50500.3 lineto
91254.7 50444.1 lineto
91085.9 50444.1 lineto
stroke
newpath
91817.1 51231.5 moveto
92267 51231.5 lineto
stroke
newpath
91985.8 51625.2 moveto
91985.8 50612.8 lineto
92042.1 50500.3 lineto
92154.5 50444.1 lineto
92267 50444.1 lineto
stroke
newpath
92604.5 50500.3 moveto
92717 50444.1 lineto
92941.9 50444.1 lineto
93054.4 50500.3 lineto
93110.7 50612.8 lineto
93110.7 50669 lineto
93054.4 50781.5 lineto
92941.9 50837.8 lineto
92773.2 50837.8 lineto
92660.7 50894 lineto
92604.5 51006.5 lineto
92604.5 51062.7 lineto
92660.7 51175.2 lineto
92773.2 51231.5 lineto
92941.9 51231.5 lineto
93054.4 51175.2 lineto
stroke
newpath
93504.4 49994.1 moveto
93560.6 50050.4 lineto
93673.1 50219.1 lineto
93729.3 50331.6 lineto
93785.6 50500.3 lineto
93841.8 50781.5 lineto
93841.8 51006.5 lineto
93785.6 51287.7 lineto
93729.3 51456.4 lineto
93673.1 51568.9 lineto
93560.6 51737.6 lineto
93504.4 51793.9 lineto
stroke
newpath
58084.5 48500.6 moveto
58084.5 50338 lineto
56247.1 50338 lineto
56247.1 48500.6 lineto
58084.5 48500.6 lineto
poly0
newpath
59477.4 49953.6 moveto
59533.6 50009.9 lineto
59646.1 50066.1 lineto
59927.3 50066.1 lineto
60039.8 50009.9 lineto
60096 49953.6 lineto
60152.3 49841.1 lineto
60152.3 49728.6 lineto
60096 49559.9 lineto
59421.1 48885 lineto
60152.3 48885 lineto
stroke
newpath
60658.5 48997.5 moveto
60714.7 48941.2 lineto
60658.5 48885 lineto
60602.2 48941.2 lineto
60658.5 48997.5 lineto
60658.5 48885 lineto
stroke
newpath
61164.7 49953.6 moveto
61220.9 50009.9 lineto
61333.4 50066.1 lineto
61614.6 50066.1 lineto
61727.1 50009.9 lineto
61783.3 49953.6 lineto
61839.6 49841.1 lineto
61839.6 49728.6 lineto
61783.3 49559.9 lineto
61108.4 48885 lineto
61839.6 48885 lineto
stroke
newpath
62570.7 50066.1 moveto
62683.2 50066.1 lineto
62795.7 50009.9 lineto
62852 49953.6 lineto
62908.2 49841.1 lineto
62964.4 49616.2 lineto
62964.4 49334.9 lineto
62908.2 49110 lineto
62852 48997.5 lineto
62795.7 48941.2 lineto
62683.2 48885 lineto
62570.7 48885 lineto
62458.3 48941.2 lineto
62402 48997.5 lineto
62345.8 49110 lineto
62289.5 49334.9 lineto
62289.5 49616.2 lineto
62345.8 49841.1 lineto
62402 49953.6 lineto
62458.3 50009.9 lineto
62570.7 50066.1 lineto
stroke
newpath
63470.6 48885 moveto
63470.6 49672.4 lineto
stroke
newpath
63470.6 49559.9 moveto
63526.9 49616.2 lineto
63639.4 49672.4 lineto
63808.1 49672.4 lineto
63920.6 49616.2 lineto
63976.8 49503.7 lineto
63976.8 48885 lineto
stroke
newpath
63976.8 49503.7 moveto
64033.1 49616.2 lineto
64145.5 49672.4 lineto
64314.3 49672.4 lineto
64426.8 49616.2 lineto
64483 49503.7 lineto
64483 48885 lineto
stroke
newpath
65045.4 48885 moveto
65045.4 49672.4 lineto
stroke
newpath
65045.4 49559.9 moveto
65101.7 49616.2 lineto
65214.2 49672.4 lineto
65382.9 49672.4 lineto
65495.4 49616.2 lineto
65551.6 49503.7 lineto
65551.6 48885 lineto
stroke
newpath
65551.6 49503.7 moveto
65607.9 49616.2 lineto
65720.3 49672.4 lineto
65889.1 49672.4 lineto
66001.6 49616.2 lineto
66057.8 49503.7 lineto
66057.8 48885 lineto
stroke
newpath
68363.8 50122.3 moveto
67351.4 48603.8 lineto
stroke
newpath
69882.3 50066.1 moveto
69994.8 50066.1 lineto
70107.3 50009.9 lineto
70163.5 49953.6 lineto
70219.8 49841.1 lineto
70276 49616.2 lineto
70276 49334.9 lineto
70219.8 49110 lineto
70163.5 48997.5 lineto
70107.3 48941.2 lineto
69994.8 48885 lineto
69882.3 48885 lineto
69769.8 48941.2 lineto
69713.6 48997.5 lineto
69657.4 49110 lineto
69601.1 49334.9 lineto
69601.1 49616.2 lineto
69657.4 49841.1 lineto
69713.6 49953.6 lineto
69769.8 50009.9 lineto
69882.3 50066.1 lineto
stroke
newpath
70782.2 48997.5 moveto
70838.5 48941.2 lineto
70782.2 48885 lineto
70726 48941.2 lineto
70782.2 48997.5 lineto
70782.2 48885 lineto
stroke
newpath
71569.6 50066.1 moveto
71682.1 50066.1 lineto
71794.6 50009.9 lineto
71850.8 49953.6 lineto
71907.1 49841.1 lineto
71963.3 49616.2 lineto
71963.3 49334.9 lineto
71907.1 49110 lineto
71850.8 48997.5 lineto
71794.6 48941.2 lineto
71682.1 48885 lineto
71569.6 48885 lineto
71457.1 48941.2 lineto
71400.9 48997.5 lineto
71344.6 49110 lineto
71288.4 49334.9 lineto
71288.4 49616.2 lineto
71344.6 49841.1 lineto
71400.9 49953.6 lineto
71457.1 50009.9 lineto
71569.6 50066.1 lineto
stroke
newpath
72638.2 49559.9 moveto
72525.7 49616.2 lineto
72469.5 49672.4 lineto
72413.3 49784.9 lineto
72413.3 49841.1 lineto
72469.5 49953.6 lineto
72525.7 50009.9 lineto
72638.2 50066.1 lineto
72863.2 50066.1 lineto
72975.7 50009.9 lineto
73031.9 49953.6 lineto
73088.2 49841.1 lineto
73088.2 49784.9 lineto
73031.9 49672.4 lineto
72975.7 49616.2 lineto
72863.2 49559.9 lineto
72638.2 49559.9 lineto
72525.7 49503.7 lineto
72469.5 49447.4 lineto
72413.3 49334.9 lineto
72413.3 49110 lineto
72469.5 48997.5 lineto
72525.7 48941.2 lineto
72638.2 48885 lineto
72863.2 48885 lineto
72975.7 48941.2 lineto
73031.9 48997.5 lineto
73088.2 49110 lineto
73088.2 49334.9 lineto
73031.9 49447.4 lineto
72975.7 49503.7 lineto
72863.2 49559.9 lineto
stroke
newpath
73481.9 50066.1 moveto
74269.3 50066.1 lineto
73763.1 48885 lineto
stroke
newpath
74663 50066.1 moveto
74663 49841.1 lineto
stroke
newpath
75112.9 50066.1 moveto
75112.9 49841.1 lineto
stroke
newpath
76856.5 48435.1 moveto
76800.2 48491.3 lineto
76687.7 48660 lineto
76631.5 48772.5 lineto
76575.2 48941.2 lineto
76519 49222.5 lineto
76519 49447.4 lineto
76575.2 49728.6 lineto
76631.5 49897.4 lineto
76687.7 50009.9 lineto
76800.2 50178.6 lineto
76856.5 50234.8 lineto
stroke
newpath
77812.6 49672.4 moveto
77812.6 48885 lineto
stroke
newpath
77531.4 50122.3 moveto
77250.2 49278.7 lineto
77981.3 49278.7 lineto
stroke
newpath
79331.1 48885 moveto
79331.1 50066.1 lineto
stroke
newpath
79837.3 48885 moveto
79837.3 49503.7 lineto
79781.1 49616.2 lineto
79668.6 49672.4 lineto
79499.9 49672.4 lineto
79387.4 49616.2 lineto
79331.1 49559.9 lineto
stroke
newpath
80568.5 48885 moveto
80456 48941.2 lineto
80399.8 48997.5 lineto
80343.5 49110 lineto
80343.5 49447.4 lineto
80399.8 49559.9 lineto
80456 49616.2 lineto
80568.5 49672.4 lineto
80737.2 49672.4 lineto
80849.7 49616.2 lineto
80905.9 49559.9 lineto
80962.2 49447.4 lineto
80962.2 49110 lineto
80905.9 48997.5 lineto
80849.7 48941.2 lineto
80737.2 48885 lineto
80568.5 48885 lineto
stroke
newpath
81637.1 48885 moveto
81524.6 48941.2 lineto
81468.4 49053.7 lineto
81468.4 50066.1 lineto
stroke
newpath
82537 48941.2 moveto
82424.5 48885 lineto
82199.5 48885 lineto
82087 48941.2 lineto
82030.8 49053.7 lineto
82030.8 49503.7 lineto
82087 49616.2 lineto
82199.5 49672.4 lineto
82424.5 49672.4 lineto
82537 49616.2 lineto
82593.2 49503.7 lineto
82593.2 49391.2 lineto
82030.8 49278.7 lineto
stroke
newpath
83043.2 48941.2 moveto
83155.7 48885 lineto
83380.6 48885 lineto
83493.1 48941.2 lineto
83549.4 49053.7 lineto
83549.4 49110 lineto
83493.1 49222.5 lineto
83380.6 49278.7 lineto
83211.9 49278.7 lineto
83099.4 49334.9 lineto
83043.2 49447.4 lineto
83043.2 49503.7 lineto
83099.4 49616.2 lineto
83211.9 49672.4 lineto
83380.6 49672.4 lineto
83493.1 49616.2 lineto
stroke
newpath
83943.1 48435.1 moveto
83999.3 48491.3 lineto
84111.8 48660 lineto
84168 48772.5 lineto
84224.3 48941.2 lineto
84280.5 49222.5 lineto
84280.5 49447.4 lineto
84224.3 49728.6 lineto
84168 49897.4 lineto
84111.8 50009.9 lineto
83999.3 50178.6 lineto
83943.1 50234.8 lineto
stroke
showpage
grestore
%%EOF
