G04 #@! TF.FileFunction,Legend,Bot*
%FSLAX46Y46*%
G04 Gerber Fmt 4.6, Leading zero omitted, Abs format (unit mm)*
G04 Created by KiCad (PCBNEW 4.0.6) date Mon Sep 25 22:51:16 2017*
%MOMM*%
%LPD*%
G01*
G04 APERTURE LIST*
%ADD10C,0.100000*%
%ADD11C,0.203200*%
%ADD12C,0.101600*%
%ADD13C,0.120000*%
%ADD14C,0.150000*%
%ADD15R,6.468060X6.468060*%
%ADD16R,1.650000X1.400000*%
%ADD17R,1.400000X1.650000*%
%ADD18O,1.650000X1.350000*%
%ADD19O,1.400000X1.950000*%
%ADD20R,1.700000X1.100000*%
%ADD21R,0.908000X1.543000*%
%ADD22R,1.543000X0.908000*%
%ADD23R,0.950000X2.000000*%
%ADD24R,2.000000X0.950000*%
%ADD25R,1.800000X1.600000*%
%ADD26R,1.100000X1.700000*%
%ADD27C,4.800000*%
G04 APERTURE END LIST*
D10*
D11*
X132488940Y-83296760D02*
X132488940Y-90693240D01*
X132488940Y-83296760D02*
X126418340Y-76497180D01*
X132488940Y-90693240D02*
X126418340Y-97492820D01*
X126418340Y-97492820D02*
X125318520Y-97492820D01*
X126418340Y-76497180D02*
X125318520Y-76497180D01*
X115620800Y-76497180D02*
X118521480Y-76497180D01*
X115620800Y-97492820D02*
X118521480Y-97492820D01*
D12*
X128989258Y-86995000D02*
G75*
G03X128989258Y-86995000I-7069258J0D01*
G01*
D11*
X113629583Y-81707668D02*
G75*
G02X113621820Y-92293440I-7576963J-5287332D01*
G01*
X113621947Y-81695185D02*
G75*
G02X115620800Y-76497180I1955673J2231285D01*
G01*
X115616163Y-97495563D02*
G75*
G02X113621820Y-92293440I30037J2994863D01*
G01*
D13*
X145200000Y-80510000D02*
X145200000Y-79510000D01*
X146900000Y-79510000D02*
X146900000Y-80510000D01*
X154440000Y-84875000D02*
X155440000Y-84875000D01*
X155440000Y-86575000D02*
X154440000Y-86575000D01*
X134835000Y-88400000D02*
X134835000Y-89400000D01*
X133135000Y-89400000D02*
X133135000Y-88400000D01*
X164075000Y-90770000D02*
X164075000Y-89570000D01*
X162315000Y-89570000D02*
X162315000Y-90770000D01*
D14*
X159385000Y-82296000D02*
X159385000Y-77470000D01*
X159385000Y-77470000D02*
X149225000Y-77470000D01*
X149225000Y-77470000D02*
X149225000Y-82296000D01*
X149225000Y-82296000D02*
X159385000Y-82296000D01*
X149225000Y-80518000D02*
X149860000Y-80518000D01*
X149860000Y-80518000D02*
X149860000Y-79248000D01*
X149860000Y-79248000D02*
X149225000Y-79248000D01*
X158877000Y-87249000D02*
X150876000Y-87249000D01*
X150876000Y-98171000D02*
X158877000Y-98171000D01*
X150876000Y-87249000D02*
X150876000Y-98171000D01*
X158877000Y-98171000D02*
X158877000Y-87249000D01*
X154432000Y-87249000D02*
X154432000Y-88011000D01*
X154432000Y-88011000D02*
X155448000Y-88011000D01*
X155448000Y-88011000D02*
X155448000Y-87249000D01*
X137980000Y-89085000D02*
X138205000Y-89085000D01*
X137980000Y-96335000D02*
X138305000Y-96335000D01*
X145230000Y-96335000D02*
X144905000Y-96335000D01*
X145230000Y-89085000D02*
X144905000Y-89085000D01*
X137980000Y-89085000D02*
X137980000Y-89410000D01*
X145230000Y-89085000D02*
X145230000Y-89410000D01*
X145230000Y-96335000D02*
X145230000Y-96010000D01*
X137980000Y-96335000D02*
X137980000Y-96010000D01*
X138205000Y-89085000D02*
X138205000Y-87660000D01*
D13*
X139605000Y-86740000D02*
X139605000Y-83440000D01*
X139605000Y-83440000D02*
X143605000Y-83440000D01*
X145200000Y-85590000D02*
X145200000Y-84590000D01*
X146900000Y-84590000D02*
X146900000Y-85590000D01*
X136310000Y-85590000D02*
X136310000Y-84590000D01*
X138010000Y-84590000D02*
X138010000Y-85590000D01*
X142275000Y-99940000D02*
X143475000Y-99940000D01*
X143475000Y-98180000D02*
X142275000Y-98180000D01*
D14*
X144907143Y-79843334D02*
X144954762Y-79795715D01*
X145002381Y-79652858D01*
X145002381Y-79557620D01*
X144954762Y-79414762D01*
X144859524Y-79319524D01*
X144764286Y-79271905D01*
X144573810Y-79224286D01*
X144430952Y-79224286D01*
X144240476Y-79271905D01*
X144145238Y-79319524D01*
X144050000Y-79414762D01*
X144002381Y-79557620D01*
X144002381Y-79652858D01*
X144050000Y-79795715D01*
X144097619Y-79843334D01*
X145002381Y-80795715D02*
X145002381Y-80224286D01*
X145002381Y-80510000D02*
X144002381Y-80510000D01*
X144145238Y-80414762D01*
X144240476Y-80319524D01*
X144288095Y-80224286D01*
X155106666Y-84582143D02*
X155154285Y-84629762D01*
X155297142Y-84677381D01*
X155392380Y-84677381D01*
X155535238Y-84629762D01*
X155630476Y-84534524D01*
X155678095Y-84439286D01*
X155725714Y-84248810D01*
X155725714Y-84105952D01*
X155678095Y-83915476D01*
X155630476Y-83820238D01*
X155535238Y-83725000D01*
X155392380Y-83677381D01*
X155297142Y-83677381D01*
X155154285Y-83725000D01*
X155106666Y-83772619D01*
X154773333Y-83677381D02*
X154106666Y-83677381D01*
X154535238Y-84677381D01*
X135842143Y-88733334D02*
X135889762Y-88685715D01*
X135937381Y-88542858D01*
X135937381Y-88447620D01*
X135889762Y-88304762D01*
X135794524Y-88209524D01*
X135699286Y-88161905D01*
X135508810Y-88114286D01*
X135365952Y-88114286D01*
X135175476Y-88161905D01*
X135080238Y-88209524D01*
X134985000Y-88304762D01*
X134937381Y-88447620D01*
X134937381Y-88542858D01*
X134985000Y-88685715D01*
X135032619Y-88733334D01*
X135937381Y-89209524D02*
X135937381Y-89400000D01*
X135889762Y-89495239D01*
X135842143Y-89542858D01*
X135699286Y-89638096D01*
X135508810Y-89685715D01*
X135127857Y-89685715D01*
X135032619Y-89638096D01*
X134985000Y-89590477D01*
X134937381Y-89495239D01*
X134937381Y-89304762D01*
X134985000Y-89209524D01*
X135032619Y-89161905D01*
X135127857Y-89114286D01*
X135365952Y-89114286D01*
X135461190Y-89161905D01*
X135508810Y-89209524D01*
X135556429Y-89304762D01*
X135556429Y-89495239D01*
X135508810Y-89590477D01*
X135461190Y-89638096D01*
X135365952Y-89685715D01*
X161997381Y-90003334D02*
X161521190Y-89670000D01*
X161997381Y-89431905D02*
X160997381Y-89431905D01*
X160997381Y-89812858D01*
X161045000Y-89908096D01*
X161092619Y-89955715D01*
X161187857Y-90003334D01*
X161330714Y-90003334D01*
X161425952Y-89955715D01*
X161473571Y-89908096D01*
X161521190Y-89812858D01*
X161521190Y-89431905D01*
X160997381Y-90860477D02*
X160997381Y-90670000D01*
X161045000Y-90574762D01*
X161092619Y-90527143D01*
X161235476Y-90431905D01*
X161425952Y-90384286D01*
X161806905Y-90384286D01*
X161902143Y-90431905D01*
X161949762Y-90479524D01*
X161997381Y-90574762D01*
X161997381Y-90765239D01*
X161949762Y-90860477D01*
X161902143Y-90908096D01*
X161806905Y-90955715D01*
X161568810Y-90955715D01*
X161473571Y-90908096D01*
X161425952Y-90860477D01*
X161378333Y-90765239D01*
X161378333Y-90574762D01*
X161425952Y-90479524D01*
X161473571Y-90431905D01*
X161568810Y-90384286D01*
X155066905Y-80732381D02*
X155066905Y-81541905D01*
X155019286Y-81637143D01*
X154971667Y-81684762D01*
X154876429Y-81732381D01*
X154685952Y-81732381D01*
X154590714Y-81684762D01*
X154543095Y-81637143D01*
X154495476Y-81541905D01*
X154495476Y-80732381D01*
X153495476Y-81732381D02*
X154066905Y-81732381D01*
X153781191Y-81732381D02*
X153781191Y-80732381D01*
X153876429Y-80875238D01*
X153971667Y-80970476D01*
X154066905Y-81018095D01*
X153503381Y-92202095D02*
X154312905Y-92202095D01*
X154408143Y-92249714D01*
X154455762Y-92297333D01*
X154503381Y-92392571D01*
X154503381Y-92583048D01*
X154455762Y-92678286D01*
X154408143Y-92725905D01*
X154312905Y-92773524D01*
X153503381Y-92773524D01*
X153503381Y-93154476D02*
X153503381Y-93773524D01*
X153884333Y-93440190D01*
X153884333Y-93583048D01*
X153931952Y-93678286D01*
X153979571Y-93725905D01*
X154074810Y-93773524D01*
X154312905Y-93773524D01*
X154408143Y-93725905D01*
X154455762Y-93678286D01*
X154503381Y-93583048D01*
X154503381Y-93297333D01*
X154455762Y-93202095D01*
X154408143Y-93154476D01*
X135007381Y-91948095D02*
X135816905Y-91948095D01*
X135912143Y-91995714D01*
X135959762Y-92043333D01*
X136007381Y-92138571D01*
X136007381Y-92329048D01*
X135959762Y-92424286D01*
X135912143Y-92471905D01*
X135816905Y-92519524D01*
X135007381Y-92519524D01*
X135340714Y-93424286D02*
X136007381Y-93424286D01*
X134959762Y-93186190D02*
X135674048Y-92948095D01*
X135674048Y-93567143D01*
X142081191Y-87516190D02*
X142081191Y-87992381D01*
X142414524Y-86992381D02*
X142081191Y-87516190D01*
X141747857Y-86992381D01*
X140890714Y-87992381D02*
X141462143Y-87992381D01*
X141176429Y-87992381D02*
X141176429Y-86992381D01*
X141271667Y-87135238D01*
X141366905Y-87230476D01*
X141462143Y-87278095D01*
X144907143Y-84923334D02*
X144954762Y-84875715D01*
X145002381Y-84732858D01*
X145002381Y-84637620D01*
X144954762Y-84494762D01*
X144859524Y-84399524D01*
X144764286Y-84351905D01*
X144573810Y-84304286D01*
X144430952Y-84304286D01*
X144240476Y-84351905D01*
X144145238Y-84399524D01*
X144050000Y-84494762D01*
X144002381Y-84637620D01*
X144002381Y-84732858D01*
X144050000Y-84875715D01*
X144097619Y-84923334D01*
X144335714Y-85780477D02*
X145002381Y-85780477D01*
X143954762Y-85542381D02*
X144669048Y-85304286D01*
X144669048Y-85923334D01*
X136017143Y-84923334D02*
X136064762Y-84875715D01*
X136112381Y-84732858D01*
X136112381Y-84637620D01*
X136064762Y-84494762D01*
X135969524Y-84399524D01*
X135874286Y-84351905D01*
X135683810Y-84304286D01*
X135540952Y-84304286D01*
X135350476Y-84351905D01*
X135255238Y-84399524D01*
X135160000Y-84494762D01*
X135112381Y-84637620D01*
X135112381Y-84732858D01*
X135160000Y-84875715D01*
X135207619Y-84923334D01*
X135112381Y-85828096D02*
X135112381Y-85351905D01*
X135588571Y-85304286D01*
X135540952Y-85351905D01*
X135493333Y-85447143D01*
X135493333Y-85685239D01*
X135540952Y-85780477D01*
X135588571Y-85828096D01*
X135683810Y-85875715D01*
X135921905Y-85875715D01*
X136017143Y-85828096D01*
X136064762Y-85780477D01*
X136112381Y-85685239D01*
X136112381Y-85447143D01*
X136064762Y-85351905D01*
X136017143Y-85304286D01*
X143041666Y-97862381D02*
X143375000Y-97386190D01*
X143613095Y-97862381D02*
X143613095Y-96862381D01*
X143232142Y-96862381D01*
X143136904Y-96910000D01*
X143089285Y-96957619D01*
X143041666Y-97052857D01*
X143041666Y-97195714D01*
X143089285Y-97290952D01*
X143136904Y-97338571D01*
X143232142Y-97386190D01*
X143613095Y-97386190D01*
X142565476Y-97862381D02*
X142375000Y-97862381D01*
X142279761Y-97814762D01*
X142232142Y-97767143D01*
X142136904Y-97624286D01*
X142089285Y-97433810D01*
X142089285Y-97052857D01*
X142136904Y-96957619D01*
X142184523Y-96910000D01*
X142279761Y-96862381D01*
X142470238Y-96862381D01*
X142565476Y-96910000D01*
X142613095Y-96957619D01*
X142660714Y-97052857D01*
X142660714Y-97290952D01*
X142613095Y-97386190D01*
X142565476Y-97433810D01*
X142470238Y-97481429D01*
X142279761Y-97481429D01*
X142184523Y-97433810D01*
X142136904Y-97386190D01*
X142089285Y-97290952D01*
%LPC*%
D15*
X121920000Y-74495660D03*
X121920000Y-86995000D03*
X121920000Y-99494340D03*
D16*
X146050000Y-79010000D03*
X146050000Y-81010000D03*
D17*
X155940000Y-85725000D03*
X153940000Y-85725000D03*
D16*
X133985000Y-89900000D03*
X133985000Y-87900000D03*
D18*
X140295000Y-76280000D03*
X135295000Y-76280000D03*
D19*
X141295000Y-73580000D03*
X134295000Y-73580000D03*
D20*
X163195000Y-89220000D03*
X163195000Y-91120000D03*
D21*
X150495000Y-76708000D03*
X151765000Y-76708000D03*
X153035000Y-76708000D03*
X154305000Y-76708000D03*
X155575000Y-76708000D03*
X156845000Y-76708000D03*
X158115000Y-76708000D03*
X158115000Y-83058000D03*
X156845000Y-83058000D03*
X154305000Y-83058000D03*
X153035000Y-83058000D03*
X151765000Y-83058000D03*
X150495000Y-83058000D03*
X155575000Y-83058000D03*
D22*
X160020000Y-88265000D03*
X160020000Y-89535000D03*
X160020000Y-90805000D03*
X160020000Y-92075000D03*
X160020000Y-93345000D03*
X160020000Y-94615000D03*
X160020000Y-95885000D03*
X160020000Y-97155000D03*
X149860000Y-97155000D03*
X149860000Y-95885000D03*
X149860000Y-94615000D03*
X149860000Y-93345000D03*
X149860000Y-92075000D03*
X149860000Y-90805000D03*
X149860000Y-89535000D03*
X149860000Y-88265000D03*
D23*
X138805000Y-88460000D03*
X139605000Y-88460000D03*
X140405000Y-88460000D03*
X141205000Y-88460000D03*
X142005000Y-88460000D03*
X142805000Y-88460000D03*
X143605000Y-88460000D03*
X144405000Y-88460000D03*
D24*
X145855000Y-89910000D03*
X145855000Y-90710000D03*
X145855000Y-91510000D03*
X145855000Y-92310000D03*
X145855000Y-93110000D03*
X145855000Y-93910000D03*
X145855000Y-94710000D03*
X145855000Y-95510000D03*
D23*
X144405000Y-96960000D03*
X143605000Y-96960000D03*
X142805000Y-96960000D03*
X142005000Y-96960000D03*
X141205000Y-96960000D03*
X140405000Y-96960000D03*
X139605000Y-96960000D03*
X138805000Y-96960000D03*
D24*
X137355000Y-95510000D03*
X137355000Y-94710000D03*
X137355000Y-93910000D03*
X137355000Y-93110000D03*
X137355000Y-92310000D03*
X137355000Y-91510000D03*
X137355000Y-90710000D03*
X137355000Y-89910000D03*
D25*
X140505000Y-84240000D03*
X142705000Y-84240000D03*
X142705000Y-85940000D03*
X140505000Y-85940000D03*
D16*
X146050000Y-84090000D03*
X146050000Y-86090000D03*
X137160000Y-84090000D03*
X137160000Y-86090000D03*
D26*
X143825000Y-99060000D03*
X141925000Y-99060000D03*
D27*
X109855000Y-100330000D03*
X166370000Y-100330000D03*
X166370000Y-73660000D03*
X109855000Y-73660000D03*
M02*
