M48
;DRILL file {KiCad 4.0.6} date Mon Sep 25 22:49:36 2017
;FORMAT={-:-/ absolute / metric / decimal}
FMAT,2
METRIC,TZ
T1C0.400
T2C0.500
T3C0.550
T4C2.200
%
G90
G05
M71
T1
X115.001Y-83.041
X116.312Y-87.821
X119.48Y-93.916
X120.388Y-79.1
X125.955Y-87.275
X128.464Y-97.106
X129.274Y-96.37
X134.088Y-85.751
X135.69Y-85.125
X135.896Y-92.847
X136.322Y-81.915
X136.486Y-88.349
X137.911Y-98.573
X137.951Y-97.577
X137.997Y-96.537
X139.328Y-91.032
X140.083Y-95.586
X141.34Y-90.418
X142.005Y-93.238
X142.398Y-73.125
X142.82Y-92.99
X142.875Y-99.588
X143.698Y-93.864
X144.546Y-92.279
X145.213Y-87.43
X146.045Y-88.506
X146.05Y-77.794
X147.431Y-87.892
X147.773Y-84.287
X148.327Y-93.061
X148.911Y-88.885
X149.729Y-76.852
X150.495Y-79.998
X150.947Y-92.075
X151.865Y-78.016
X152.538Y-74.032
X153.983Y-90.187
X154.533Y-84.596
X154.556Y-78.274
X155.751Y-92.365
X156.845Y-81.972
X157.272Y-80.409
X158.778Y-78.526
T4
X109.855Y-73.66
X109.855Y-100.33
X166.37Y-73.66
X166.37Y-100.33
T2
X134.295Y-73.255G85X134.295Y-73.905
G05
X141.295Y-73.255G85X141.295Y-73.905
G05
T3
X135.445Y-76.28G85X135.145Y-76.28
G05
X140.445Y-76.28G85X140.145Y-76.28
G05
T0
M30
