G04 #@! TF.FileFunction,Copper,L2,Bot,Signal*
%FSLAX46Y46*%
G04 Gerber Fmt 4.6, Leading zero omitted, Abs format (unit mm)*
G04 Created by KiCad (PCBNEW 4.0.6) date Mon Sep 25 22:51:16 2017*
%MOMM*%
%LPD*%
G01*
G04 APERTURE LIST*
%ADD10C,0.100000*%
%ADD11R,6.068060X6.068060*%
%ADD12R,1.250000X1.000000*%
%ADD13R,1.000000X1.250000*%
%ADD14O,1.250000X0.950000*%
%ADD15O,1.000000X1.550000*%
%ADD16R,1.300000X0.700000*%
%ADD17R,0.508000X1.143000*%
%ADD18R,1.143000X0.508000*%
%ADD19R,0.550000X1.600000*%
%ADD20R,1.600000X0.550000*%
%ADD21R,1.400000X1.200000*%
%ADD22R,0.700000X1.300000*%
%ADD23C,4.400000*%
%ADD24C,0.600000*%
%ADD25C,0.250000*%
G04 APERTURE END LIST*
D10*
D11*
X121920000Y-74495660D03*
X121920000Y-86995000D03*
X121920000Y-99494340D03*
D12*
X146050000Y-79010000D03*
X146050000Y-81010000D03*
D13*
X155940000Y-85725000D03*
X153940000Y-85725000D03*
D12*
X133985000Y-89900000D03*
X133985000Y-87900000D03*
D14*
X140295000Y-76280000D03*
X135295000Y-76280000D03*
D15*
X141295000Y-73580000D03*
X134295000Y-73580000D03*
D16*
X163195000Y-89220000D03*
X163195000Y-91120000D03*
D17*
X150495000Y-76708000D03*
X151765000Y-76708000D03*
X153035000Y-76708000D03*
X154305000Y-76708000D03*
X155575000Y-76708000D03*
X156845000Y-76708000D03*
X158115000Y-76708000D03*
X158115000Y-83058000D03*
X156845000Y-83058000D03*
X154305000Y-83058000D03*
X153035000Y-83058000D03*
X151765000Y-83058000D03*
X150495000Y-83058000D03*
X155575000Y-83058000D03*
D18*
X160020000Y-88265000D03*
X160020000Y-89535000D03*
X160020000Y-90805000D03*
X160020000Y-92075000D03*
X160020000Y-93345000D03*
X160020000Y-94615000D03*
X160020000Y-95885000D03*
X160020000Y-97155000D03*
X149860000Y-97155000D03*
X149860000Y-95885000D03*
X149860000Y-94615000D03*
X149860000Y-93345000D03*
X149860000Y-92075000D03*
X149860000Y-90805000D03*
X149860000Y-89535000D03*
X149860000Y-88265000D03*
D19*
X138805000Y-88460000D03*
X139605000Y-88460000D03*
X140405000Y-88460000D03*
X141205000Y-88460000D03*
X142005000Y-88460000D03*
X142805000Y-88460000D03*
X143605000Y-88460000D03*
X144405000Y-88460000D03*
D20*
X145855000Y-89910000D03*
X145855000Y-90710000D03*
X145855000Y-91510000D03*
X145855000Y-92310000D03*
X145855000Y-93110000D03*
X145855000Y-93910000D03*
X145855000Y-94710000D03*
X145855000Y-95510000D03*
D19*
X144405000Y-96960000D03*
X143605000Y-96960000D03*
X142805000Y-96960000D03*
X142005000Y-96960000D03*
X141205000Y-96960000D03*
X140405000Y-96960000D03*
X139605000Y-96960000D03*
X138805000Y-96960000D03*
D20*
X137355000Y-95510000D03*
X137355000Y-94710000D03*
X137355000Y-93910000D03*
X137355000Y-93110000D03*
X137355000Y-92310000D03*
X137355000Y-91510000D03*
X137355000Y-90710000D03*
X137355000Y-89910000D03*
D21*
X140505000Y-84240000D03*
X142705000Y-84240000D03*
X142705000Y-85940000D03*
X140505000Y-85940000D03*
D12*
X146050000Y-84090000D03*
X146050000Y-86090000D03*
X137160000Y-84090000D03*
X137160000Y-86090000D03*
D22*
X143825000Y-99060000D03*
X141925000Y-99060000D03*
D23*
X109855000Y-100330000D03*
X166370000Y-100330000D03*
X166370000Y-73660000D03*
X109855000Y-73660000D03*
D24*
X136322100Y-81915300D03*
X150495000Y-79997900D03*
X158778300Y-78525700D03*
X137911100Y-98572600D03*
X150947200Y-92075000D03*
X125955000Y-87274700D03*
X146050000Y-77793800D03*
X116311800Y-87820700D03*
X142875000Y-99587900D03*
X142819700Y-92989600D03*
X119479700Y-93915600D03*
X142005000Y-93238200D03*
X136486300Y-88349000D03*
X142397700Y-73125200D03*
X135896400Y-92846600D03*
X147773000Y-84286900D03*
X154555900Y-78273900D03*
X157271800Y-80409500D03*
X151865000Y-78015500D03*
X154532700Y-84595600D03*
X149728800Y-76851900D03*
X152538200Y-74032100D03*
X128463600Y-97106500D03*
X129274000Y-96369700D03*
X137951200Y-97576600D03*
X137996700Y-96537500D03*
X144546000Y-92279000D03*
X145212800Y-87430300D03*
X135690300Y-85125300D03*
X120387700Y-79100300D03*
X146045300Y-88506000D03*
X134087600Y-85750600D03*
X115001500Y-83041500D03*
X143698500Y-93863600D03*
X141340000Y-90417800D03*
X155750600Y-92364900D03*
X148910900Y-88885400D03*
X139327700Y-91031700D03*
X140082700Y-95585800D03*
X148326900Y-93061400D03*
X153982900Y-90187400D03*
X147430600Y-87891600D03*
X156845000Y-81972100D03*
D25*
X130968200Y-80184600D02*
X125279300Y-74495700D01*
X146844200Y-80184600D02*
X130968200Y-80184600D01*
X148465800Y-81806200D02*
X146844200Y-80184600D01*
X148465800Y-82779300D02*
X148465800Y-81806200D01*
X150756800Y-85070300D02*
X148465800Y-82779300D01*
X150756800Y-90805000D02*
X150756800Y-85070300D01*
X149860000Y-90805000D02*
X150756800Y-90805000D01*
X121920000Y-74495700D02*
X125279300Y-74495700D01*
X140405000Y-89585300D02*
X142005000Y-89585300D01*
X140405000Y-88460000D02*
X140405000Y-89585300D01*
X142005000Y-88460000D02*
X142005000Y-89585300D01*
X137160000Y-86090000D02*
X137160000Y-85264700D01*
X154305000Y-83058000D02*
X154305000Y-83954800D01*
X158778300Y-81497900D02*
X158115000Y-82161200D01*
X158778300Y-78525700D02*
X158778300Y-81497900D01*
X158115000Y-83058000D02*
X158115000Y-82161200D01*
X121920000Y-86995000D02*
X125279300Y-86995000D01*
X150495000Y-82161200D02*
X150495000Y-79997900D01*
X139954700Y-86884400D02*
X140405000Y-87334700D01*
X138904700Y-86884400D02*
X139954700Y-86884400D01*
X138110300Y-86090000D02*
X138904700Y-86884400D01*
X137160000Y-86090000D02*
X138110300Y-86090000D01*
X140405000Y-88460000D02*
X140405000Y-87334700D01*
X146050000Y-81010000D02*
X146050000Y-81835300D01*
X146050000Y-86090000D02*
X146050000Y-85264700D01*
X145970000Y-81915300D02*
X146050000Y-81835300D01*
X136322100Y-81915300D02*
X145970000Y-81915300D01*
X141205000Y-92123600D02*
X141205000Y-96960000D01*
X142005000Y-91323600D02*
X141205000Y-92123600D01*
X142005000Y-89585300D02*
X142005000Y-91323600D01*
X141205000Y-96960000D02*
X141205000Y-98085300D01*
X150495000Y-82833800D02*
X150495000Y-82161200D01*
X140717700Y-98572600D02*
X137911100Y-98572600D01*
X141205000Y-98085300D02*
X140717700Y-98572600D01*
X133985000Y-87900000D02*
X134935300Y-87900000D01*
X136574800Y-85264700D02*
X137160000Y-85264700D01*
X136574800Y-85125300D02*
X136574800Y-85264700D01*
X136154300Y-84704800D02*
X136574800Y-85125300D01*
X136154300Y-82083100D02*
X136154300Y-84704800D01*
X136322100Y-81915300D02*
X136154300Y-82083100D01*
X134935300Y-87488300D02*
X134935300Y-87900000D01*
X136574800Y-85848800D02*
X134935300Y-87488300D01*
X136574800Y-85264700D02*
X136574800Y-85848800D01*
X147000400Y-82785700D02*
X146050000Y-81835300D01*
X147000400Y-84726900D02*
X147000400Y-82785700D01*
X146462600Y-85264700D02*
X147000400Y-84726900D01*
X146050000Y-85264700D02*
X146462600Y-85264700D01*
X149860000Y-92075000D02*
X150756600Y-92075000D01*
X150756600Y-92075000D02*
X150947200Y-92075000D01*
X153940000Y-89082200D02*
X153940000Y-85725000D01*
X150947200Y-92075000D02*
X153940000Y-89082200D01*
X150495000Y-82833800D02*
X150495000Y-83058000D01*
X150495000Y-83058000D02*
X150495000Y-83954800D01*
X153514500Y-83954800D02*
X153855800Y-84296100D01*
X150495000Y-83954800D02*
X153514500Y-83954800D01*
X154197100Y-83954800D02*
X153855800Y-84296100D01*
X154305000Y-83954800D02*
X154197100Y-83954800D01*
X153855800Y-85640800D02*
X153940000Y-85725000D01*
X153855800Y-84296100D02*
X153855800Y-85640800D01*
X126580300Y-87900000D02*
X125955000Y-87274700D01*
X133985000Y-87900000D02*
X126580300Y-87900000D01*
X125675300Y-86995000D02*
X125279300Y-86995000D01*
X125955000Y-87274700D02*
X125675300Y-86995000D01*
X146050000Y-79010000D02*
X146050000Y-78184700D01*
X146050000Y-78184700D02*
X146050000Y-77793800D01*
X148032600Y-75811200D02*
X146050000Y-77793800D01*
X150495000Y-75811200D02*
X148032600Y-75811200D01*
X150495000Y-76708000D02*
X150495000Y-75811200D01*
X142805000Y-88460000D02*
X142805000Y-87334700D01*
X141205000Y-88460000D02*
X141205000Y-87334700D01*
X142805000Y-87334700D02*
X141205000Y-87334700D01*
X143149700Y-99313200D02*
X143149700Y-99060000D01*
X142875000Y-99587900D02*
X143149700Y-99313200D01*
X143605000Y-96960000D02*
X143605000Y-95834700D01*
X142805000Y-92974900D02*
X142805000Y-88460000D01*
X142819700Y-92989600D02*
X142805000Y-92974900D01*
X142819700Y-95049400D02*
X142819700Y-92989600D01*
X143605000Y-95834700D02*
X142819700Y-95049400D01*
X143502600Y-99060000D02*
X143149700Y-99060000D01*
X143605000Y-98957600D02*
X143605000Y-96960000D01*
X143502600Y-99060000D02*
X143605000Y-98957600D01*
X143663800Y-99060000D02*
X143502600Y-99060000D01*
X143663800Y-99060000D02*
X143825000Y-99060000D01*
X155940000Y-87979100D02*
X155940000Y-85725000D01*
X157495900Y-89535000D02*
X155940000Y-87979100D01*
X150455300Y-96575600D02*
X157495900Y-89535000D01*
X148530000Y-96575600D02*
X150455300Y-96575600D01*
X146045600Y-99060000D02*
X148530000Y-96575600D01*
X143825000Y-99060000D02*
X146045600Y-99060000D01*
X116311800Y-90747700D02*
X119479700Y-93915600D01*
X116311800Y-87820700D02*
X116311800Y-90747700D01*
X142425100Y-100037800D02*
X142875000Y-99587900D01*
X130510600Y-100037800D02*
X142425100Y-100037800D01*
X124388400Y-93915600D02*
X130510600Y-100037800D01*
X119479700Y-93915600D02*
X124388400Y-93915600D01*
X157495900Y-89535000D02*
X160020000Y-89535000D01*
X161904700Y-89535000D02*
X162219700Y-89220000D01*
X160020000Y-89535000D02*
X161904700Y-89535000D01*
X163195000Y-89220000D02*
X162219700Y-89220000D01*
X142005000Y-96960000D02*
X142005000Y-93238200D01*
X133985000Y-89900000D02*
X134935300Y-89900000D01*
X134935300Y-89900000D02*
X136486300Y-88349000D01*
X150349000Y-73125200D02*
X153035000Y-75811200D01*
X142397700Y-73125200D02*
X150349000Y-73125200D01*
X153035000Y-76708000D02*
X153035000Y-75811200D01*
X158115000Y-76708000D02*
X158115000Y-77604800D01*
X153035000Y-76708000D02*
X153035000Y-77604800D01*
X158115000Y-77604800D02*
X155984600Y-79735200D01*
X146916700Y-96960000D02*
X144405000Y-96960000D01*
X148571100Y-95305600D02*
X146916700Y-96960000D01*
X150522400Y-95305600D02*
X148571100Y-95305600D01*
X155106500Y-90721500D02*
X150522400Y-95305600D01*
X155106500Y-84922700D02*
X155106500Y-90721500D01*
X156154400Y-83874800D02*
X155106500Y-84922700D01*
X156154400Y-79905100D02*
X156154400Y-83874800D01*
X155984600Y-79735200D02*
X156154400Y-79905100D01*
X155233600Y-78984300D02*
X155984600Y-79735200D01*
X155124600Y-78984300D02*
X155233600Y-78984300D01*
X155039500Y-78899200D02*
X155124600Y-78984300D01*
X154296900Y-78899200D02*
X155039500Y-78899200D01*
X153930600Y-78532900D02*
X154296900Y-78899200D01*
X153930600Y-78500400D02*
X153930600Y-78532900D01*
X153035000Y-77604800D02*
X153930600Y-78500400D01*
X141925000Y-99060000D02*
X141249700Y-99060000D01*
X136229700Y-92513300D02*
X135896400Y-92846600D01*
X136229700Y-92310000D02*
X136229700Y-92513300D01*
X141098000Y-99211700D02*
X141249700Y-99060000D01*
X137599300Y-99211700D02*
X141098000Y-99211700D01*
X135896400Y-97508800D02*
X137599300Y-99211700D01*
X135896400Y-92846600D02*
X135896400Y-97508800D01*
X137355000Y-92310000D02*
X136229700Y-92310000D01*
X145855000Y-94710000D02*
X146980300Y-94710000D01*
X148066900Y-84580800D02*
X147773000Y-84286900D01*
X148066900Y-92250100D02*
X148066900Y-84580800D01*
X147430700Y-92886300D02*
X148066900Y-92250100D01*
X147430700Y-94259600D02*
X147430700Y-92886300D01*
X146980300Y-94710000D02*
X147430700Y-94259600D01*
X155225000Y-77604800D02*
X155575000Y-77604800D01*
X154555900Y-78273900D02*
X155225000Y-77604800D01*
X155575000Y-76708000D02*
X155575000Y-77604800D01*
X157271800Y-79116300D02*
X157271800Y-80409500D01*
X158722900Y-77665200D02*
X157271800Y-79116300D01*
X158722900Y-76000200D02*
X158722900Y-77665200D01*
X158533900Y-75811200D02*
X158722900Y-76000200D01*
X156845000Y-75811200D02*
X158533900Y-75811200D01*
X156845000Y-76708000D02*
X156845000Y-75811200D01*
X151765000Y-77915500D02*
X151865000Y-78015500D01*
X151765000Y-76708000D02*
X151765000Y-77915500D01*
X155575000Y-83058000D02*
X155575000Y-82161200D01*
X155575000Y-83553300D02*
X154532700Y-84595600D01*
X155575000Y-83058000D02*
X155575000Y-83553300D01*
X149728800Y-77253900D02*
X149728800Y-76851900D01*
X154636100Y-82161200D02*
X149728800Y-77253900D01*
X155575000Y-82161200D02*
X154636100Y-82161200D01*
X154305000Y-75798900D02*
X154305000Y-76708000D01*
X152538200Y-74032100D02*
X154305000Y-75798900D01*
X139605000Y-88460000D02*
X139605000Y-87334700D01*
X138360700Y-87334700D02*
X139605000Y-87334700D01*
X138149800Y-87545600D02*
X138360700Y-87334700D01*
X138149800Y-87651100D02*
X138149800Y-87545600D01*
X136826600Y-88974300D02*
X138149800Y-87651100D01*
X136510200Y-88974300D02*
X136826600Y-88974300D01*
X134521100Y-90963400D02*
X136510200Y-88974300D01*
X133748100Y-90963400D02*
X134521100Y-90963400D01*
X128463600Y-96247900D02*
X133748100Y-90963400D01*
X128463600Y-97106500D02*
X128463600Y-96247900D01*
X133242800Y-92896900D02*
X136229700Y-89910000D01*
X133242800Y-92897000D02*
X133242800Y-92896900D01*
X132746700Y-92897000D02*
X133242800Y-92897000D01*
X129274000Y-96369700D02*
X132746700Y-92897000D01*
X137355000Y-89910000D02*
X136229700Y-89910000D01*
X139605000Y-96960000D02*
X139605000Y-98085300D01*
X137951200Y-97703800D02*
X137951200Y-97576600D01*
X138332700Y-98085300D02*
X137951200Y-97703800D01*
X139605000Y-98085300D02*
X138332700Y-98085300D01*
X138382500Y-96537500D02*
X137996700Y-96537500D01*
X138805000Y-96960000D02*
X138382500Y-96537500D01*
X135094400Y-75479700D02*
X135295000Y-75479700D01*
X134295000Y-74680300D02*
X135094400Y-75479700D01*
X134295000Y-73580000D02*
X134295000Y-74680300D01*
X135295000Y-76280000D02*
X135295000Y-75879800D01*
X135295000Y-75879800D02*
X135295000Y-75479700D01*
X138944500Y-75879800D02*
X139344700Y-76280000D01*
X135295000Y-75879800D02*
X138944500Y-75879800D01*
X140295000Y-76280000D02*
X139344700Y-76280000D01*
X140495600Y-75479700D02*
X140295000Y-75479700D01*
X141295000Y-74680300D02*
X140495600Y-75479700D01*
X141295000Y-73580000D02*
X141295000Y-74680300D01*
X140295000Y-76280000D02*
X140295000Y-75479700D01*
X144577000Y-92310000D02*
X144546000Y-92279000D01*
X145855000Y-92310000D02*
X144577000Y-92310000D01*
X123358800Y-82071400D02*
X120387700Y-79100300D01*
X132636400Y-82071400D02*
X123358800Y-82071400D01*
X135690300Y-85125300D02*
X132636400Y-82071400D01*
X145212800Y-89267800D02*
X145212800Y-87430300D01*
X145855000Y-89910000D02*
X145212800Y-89267800D01*
X145855000Y-90710000D02*
X146980300Y-90710000D01*
X146980300Y-89441000D02*
X146045300Y-88506000D01*
X146980300Y-90710000D02*
X146980300Y-89441000D01*
X131378500Y-83041500D02*
X134087600Y-85750600D01*
X115001500Y-83041500D02*
X131378500Y-83041500D01*
X143698500Y-92230700D02*
X143698500Y-93863600D01*
X144419200Y-91510000D02*
X143698500Y-92230700D01*
X145855000Y-91510000D02*
X144419200Y-91510000D01*
X138805000Y-88460000D02*
X138805000Y-89585300D01*
X139637500Y-90417800D02*
X141340000Y-90417800D01*
X138805000Y-89585300D02*
X139637500Y-90417800D01*
X157310500Y-90805000D02*
X160020000Y-90805000D01*
X155750600Y-92364900D02*
X157310500Y-90805000D01*
X161904700Y-90805000D02*
X162219700Y-91120000D01*
X160020000Y-90805000D02*
X161904700Y-90805000D01*
X163195000Y-91120000D02*
X162219700Y-91120000D01*
X148963200Y-88833100D02*
X148963200Y-88265000D01*
X148910900Y-88885400D02*
X148963200Y-88833100D01*
X149860000Y-88265000D02*
X148963200Y-88265000D01*
X138480300Y-91879100D02*
X139327700Y-91031700D01*
X138480300Y-93110000D02*
X138480300Y-91879100D01*
X137355000Y-93110000D02*
X138480300Y-93110000D01*
X137355000Y-93910000D02*
X138480300Y-93910000D01*
X149860000Y-89535000D02*
X148963200Y-89535000D01*
X148963200Y-92425100D02*
X148963200Y-89535000D01*
X148326900Y-93061400D02*
X148963200Y-92425100D01*
X140082700Y-95512400D02*
X140082700Y-95585800D01*
X138480300Y-93910000D02*
X140082700Y-95512400D01*
X137160000Y-84090000D02*
X138110300Y-84090000D01*
X138260300Y-84240000D02*
X138110300Y-84090000D01*
X139479700Y-84240000D02*
X138260300Y-84240000D01*
X139992400Y-84240000D02*
X139479700Y-84240000D01*
X139992400Y-84240000D02*
X140505000Y-84240000D01*
X143154700Y-86884400D02*
X143605000Y-87334700D01*
X141889300Y-86884400D02*
X143154700Y-86884400D01*
X141530300Y-86525400D02*
X141889300Y-86884400D01*
X141530300Y-84240000D02*
X141530300Y-86525400D01*
X140505000Y-84240000D02*
X141530300Y-84240000D01*
X143605000Y-88460000D02*
X143605000Y-87334700D01*
X142705000Y-84240000D02*
X143730300Y-84240000D01*
X146050000Y-84090000D02*
X145099700Y-84090000D01*
X144340000Y-84849700D02*
X145099700Y-84090000D01*
X143730300Y-84240000D02*
X144340000Y-84849700D01*
X144405000Y-84914700D02*
X144405000Y-88460000D01*
X144340000Y-84849700D02*
X144405000Y-84914700D01*
X153982900Y-90585800D02*
X153982900Y-90187400D01*
X150644300Y-93924400D02*
X153982900Y-90585800D01*
X149241900Y-93924400D02*
X150644300Y-93924400D01*
X147656300Y-95510000D02*
X149241900Y-93924400D01*
X145855000Y-95510000D02*
X147656300Y-95510000D01*
X145855000Y-93910000D02*
X146980300Y-93910000D01*
X156845000Y-83058000D02*
X156845000Y-82161200D01*
X147430600Y-90935200D02*
X147430600Y-87891600D01*
X146980300Y-91385500D02*
X147430600Y-90935200D01*
X146980300Y-93910000D02*
X146980300Y-91385500D01*
X156845000Y-82161200D02*
X156845000Y-81972100D01*
M02*
