EESchema Schematic File Version 2
LIBS:odin_sd-rescue
LIBS:power
LIBS:device
LIBS:transistors
LIBS:conn
LIBS:linear
LIBS:regul
LIBS:74xx
LIBS:cmos4000
LIBS:adc-dac
LIBS:memory
LIBS:xilinx
LIBS:microcontrollers
LIBS:dsp
LIBS:microchip
LIBS:analog_switches
LIBS:motorola
LIBS:texas
LIBS:intel
LIBS:audio
LIBS:interface
LIBS:digital-audio
LIBS:philips
LIBS:display
LIBS:cypress
LIBS:siliconi
LIBS:opto
LIBS:atmel
LIBS:contrib
LIBS:valves
LIBS:adafruit
LIBS:Halley
LIBS:SparkFun
LIBS:Dispositivos_I2C
LIBS:gus_work
LIBS:testing1
LIBS:Amplifiers
LIBS:Connectors
LIBS:DataStorage
LIBS:Diodes
LIBS:LogicDevices
LIBS:Microprocessors
LIBS:MiscellaneousDevices
LIBS:Passives
LIBS:PMOD
LIBS:PowerComponents
LIBS:RepeaterParts
LIBS:RF_OEM_Parts
LIBS:Sensors
LIBS:Snickerdoodle
LIBS:TransistorParts
LIBS:odin_sd-cache
EELAYER 25 0
EELAYER END
$Descr A4 11693 8268
encoding utf-8
Sheet 1 1
Title "ODIN-SD"
Date "2017-08-02"
Rev "1.9.0"
Comp "NIWA"
Comment1 "GPL v3"
Comment2 ""
Comment3 ""
Comment4 ""
$EndDescr
$Comp
L R_Small R3
U 1 1 56C24912
P 3900 2970
F 0 "R3" H 3930 2990 50  0000 L CNN
F 1 "200" H 3930 2930 50  0000 L CNN
F 2 "Resistors_SMD:R_0805" H 3900 2970 50  0001 C CNN
F 3 "" H 3900 2970 50  0000 C CNN
F 4 "RMCF0805JT200RCT-ND" H 3930 3090 50  0001 C CNN "DigiKey PN"
	1    3900 2970
	0    1    1    0   
$EndComp
$Comp
L R_Small R6
U 1 1 56C2493A
P 5800 6100
F 0 "R6" H 5830 6120 50  0000 L CNN
F 1 "10k" H 5830 6060 50  0000 L CNN
F 2 "Resistors_SMD:R_0805" H 5800 6100 50  0001 C CNN
F 3 "" H 5800 6100 50  0000 C CNN
F 4 "RMCF0805JT10K0CT-ND" H 5830 6220 50  0001 C CNN "DigiKey PN"
	1    5800 6100
	1    0    0    -1  
$EndComp
$Comp
L +5V #PWR6
U 1 1 56C2555E
P 1660 880
F 0 "#PWR6" H 1660 730 50  0001 C CNN
F 1 "+5V" H 1660 1020 50  0000 C CNN
F 2 "" H 1660 880 50  0000 C CNN
F 3 "" H 1660 880 50  0000 C CNN
	1    1660 880 
	-1   0    0    -1  
$EndComp
$Comp
L GND #PWR7
U 1 1 56C25583
P 1660 1320
F 0 "#PWR7" H 1660 1070 50  0001 C CNN
F 1 "GND" H 1660 1170 50  0000 C CNN
F 2 "" H 1660 1320 50  0000 C CNN
F 3 "" H 1660 1320 50  0000 C CNN
	1    1660 1320
	-1   0    0    -1  
$EndComp
$Comp
L +BATT #PWR10
U 1 1 56C25737
P 2350 840
F 0 "#PWR10" H 2350 690 50  0001 C CNN
F 1 "+BATT" H 2350 980 50  0000 C CNN
F 2 "" H 2350 840 50  0000 C CNN
F 3 "" H 2350 840 50  0000 C CNN
	1    2350 840 
	1    0    0    -1  
$EndComp
$Comp
L USB_OTG-RESCUE-odin_sd P1
U 1 1 56C26F62
P 1160 1110
F 0 "P1" H 1485 985 50  0000 C CNN
F 1 "Power in" H 1160 1310 50  0000 C CNN
F 2 "Connectors:USB_Micro-B" V 1110 1010 50  0001 C CNN
F 3 "" V 1110 1010 50  0000 C CNN
F 4 "609-4618-1-ND" H 1160 1110 60  0001 C CNN "DigiKey PN"
	1    1160 1110
	0    -1   1    0   
$EndComp
$Comp
L Battery-RESCUE-odin_sd BT1
U 1 1 56C27012
P 2350 1140
F 0 "BT1" H 2450 1190 50  0000 L CNN
F 1 "Battery" H 2450 1090 50  0000 L CNN
F 2 "SparkFun:SparkFun-BATTCON_20MM" V 2350 1180 50  0001 C CNN
F 3 "" V 2350 1180 50  0000 C CNN
F 4 "BAT-HLD-001-ND" H 2450 1290 50  0001 C CNN "DigiKey PN"
	1    2350 1140
	1    0    0    -1  
$EndComp
$Comp
L GND #PWR11
U 1 1 56C27AC4
P 2350 1390
F 0 "#PWR11" H 2350 1140 50  0001 C CNN
F 1 "GND" H 2350 1240 50  0000 C CNN
F 2 "" H 2350 1390 50  0000 C CNN
F 3 "" H 2350 1390 50  0000 C CNN
	1    2350 1390
	1    0    0    -1  
$EndComp
$Comp
L GND #PWR13
U 1 1 56C27DBC
P 2880 3200
F 0 "#PWR13" H 2880 2950 50  0001 C CNN
F 1 "GND" H 2880 3050 50  0000 C CNN
F 2 "" H 2880 3200 50  0000 C CNN
F 3 "" H 2880 3200 50  0000 C CNN
	1    2880 3200
	1    0    0    -1  
$EndComp
$Comp
L GND #PWR28
U 1 1 56C28786
P 5820 1170
F 0 "#PWR28" H 5820 920 50  0001 C CNN
F 1 "GND" H 5820 1020 50  0000 C CNN
F 2 "" H 5820 1170 50  0000 C CNN
F 3 "" H 5820 1170 50  0000 C CNN
	1    5820 1170
	1    0    0    -1  
$EndComp
$Comp
L +5V #PWR27
U 1 1 56C287B2
P 5820 870
F 0 "#PWR27" H 5820 720 50  0001 C CNN
F 1 "+5V" H 5820 1010 50  0000 C CNN
F 2 "" H 5820 870 50  0000 C CNN
F 3 "" H 5820 870 50  0000 C CNN
	1    5820 870 
	1    0    0    -1  
$EndComp
$Comp
L +BATT #PWR21
U 1 1 56C28F2F
P 4450 5600
F 0 "#PWR21" H 4450 5450 50  0001 C CNN
F 1 "+BATT" H 4450 5740 50  0000 C CNN
F 2 "" H 4450 5600 50  0000 C CNN
F 3 "" H 4450 5600 50  0000 C CNN
	1    4450 5600
	1    0    0    -1  
$EndComp
$Comp
L +5V #PWR15
U 1 1 56C29192
P 3400 6000
F 0 "#PWR15" H 3400 5850 50  0001 C CNN
F 1 "+5V" H 3400 6140 50  0000 C CNN
F 2 "" H 3400 6000 50  0000 C CNN
F 3 "" H 3400 6000 50  0000 C CNN
	1    3400 6000
	1    0    0    -1  
$EndComp
$Comp
L +5V #PWR26
U 1 1 56C2944F
P 5800 5900
F 0 "#PWR26" H 5800 5750 50  0001 C CNN
F 1 "+5V" H 5800 6040 50  0000 C CNN
F 2 "" H 5800 5900 50  0000 C CNN
F 3 "" H 5800 5900 50  0000 C CNN
	1    5800 5900
	1    0    0    -1  
$EndComp
$Comp
L DS3231N U3
U 1 1 56C294F5
P 4700 6550
F 0 "U3" H 5000 7100 60  0000 C CNN
F 1 "DS3231N" H 4400 6150 60  0000 C CNN
F 2 "SMD_Packages:SO-16-W" H 4700 6550 60  0001 C CNN
F 3 "" H 4700 6550 60  0000 C CNN
F 4 "DS3231M+TRLCT-ND" H 5000 7200 50  0001 C CNN "DigiKey PN"
	1    4700 6550
	1    0    0    -1  
$EndComp
$Comp
L GND #PWR16
U 1 1 56C299B1
P 3400 6450
F 0 "#PWR16" H 3400 6200 50  0001 C CNN
F 1 "GND" H 3400 6300 50  0000 C CNN
F 2 "" H 3400 6450 50  0000 C CNN
F 3 "" H 3400 6450 50  0000 C CNN
	1    3400 6450
	1    0    0    -1  
$EndComp
$Comp
L GND #PWR31
U 1 1 56C2A08C
P 6760 5120
F 0 "#PWR31" H 6760 4870 50  0001 C CNN
F 1 "GND" H 6760 4970 50  0000 C CNN
F 2 "" H 6760 5120 50  0000 C CNN
F 3 "" H 6760 5120 50  0000 C CNN
	1    6760 5120
	1    0    0    -1  
$EndComp
$Comp
L CONN_01X08 P2
U 1 1 56C45ACB
P 6670 1370
F 0 "P2" H 6670 1820 50  0000 C CNN
F 1 "PMS1003" V 6770 1370 50  0000 C CNN
F 2 "Connectors_Molex:Molex_PicoBlade_53261-0871_08x1.25mm_Angled" H 6670 1370 60  0001 C CNN
F 3 "" H 6670 1370 60  0000 C CNN
F 4 "WM7626CT-ND" H 6670 1920 50  0001 C CNN "DigiKey PN"
	1    6670 1370
	1    0    0    -1  
$EndComp
$Comp
L C_Small C7
U 1 1 56C4EFB2
P 3400 6250
F 0 "C7" H 3410 6320 50  0000 L CNN
F 1 "0.1uF" H 3410 6170 50  0000 L CNN
F 2 "Capacitors_SMD:C_0805" H 3400 6250 50  0001 C CNN
F 3 "" H 3400 6250 50  0000 C CNN
F 4 "1276-1022-1-ND" H 3410 6420 50  0001 C CNN "DigiKey PN"
	1    3400 6250
	1    0    0    -1  
$EndComp
$Comp
L C_Small C8
U 1 1 56C4F9C5
P 5820 1020
F 0 "C8" H 5830 1090 50  0000 L CNN
F 1 "0.1uF" H 5830 940 50  0000 L CNN
F 2 "Capacitors_SMD:C_0805" H 5820 1020 50  0001 C CNN
F 3 "" H 5820 1020 50  0000 C CNN
F 4 "1276-1022-1-ND" H 5830 1190 50  0001 C CNN "DigiKey PN"
	1    5820 1020
	1    0    0    -1  
$EndComp
$Comp
L R_Small R5
U 1 1 56F1285F
P 3900 3370
F 0 "R5" H 3930 3390 50  0000 L CNN
F 1 "200" H 3930 3330 50  0000 L CNN
F 2 "Resistors_SMD:R_0805" H 3900 3370 50  0001 C CNN
F 3 "" H 3900 3370 50  0000 C CNN
F 4 "RMCF0805JT200RCT-ND" H 3930 3490 50  0001 C CNN "DigiKey PN"
	1    3900 3370
	0    1    1    0   
$EndComp
$Comp
L +5V #PWR32
U 1 1 56F14D8A
P 8700 5870
F 0 "#PWR32" H 8700 5720 50  0001 C CNN
F 1 "+5V" H 8700 6010 50  0000 C CNN
F 2 "" H 8700 5870 50  0000 C CNN
F 3 "" H 8700 5870 50  0000 C CNN
	1    8700 5870
	1    0    0    -1  
$EndComp
$Comp
L Micro_SD_Card J1
U 1 1 59807CB2
P 1830 6280
F 0 "J1" H 1180 6880 50  0000 C CNN
F 1 "Micro_SD_Card" H 2480 6880 50  0000 R CNN
F 2 "kicad_lib_gus:uSD-CARD-hinge" H 2980 6580 50  0001 C CNN
F 3 "" H 1830 6280 50  0001 C CNN
F 4 "WM6698CT-ND" H 1180 6980 50  0001 C CNN "DigiKey PN"
	1    1830 6280
	0    1    1    0   
$EndComp
$Comp
L MIC550X-xYMT U2
U 1 1 598128B3
P 1600 2600
F 0 "U2" H 1350 3150 60  0000 C CNN
F 1 "MIC550X-xYMT" H 1600 3050 60  0000 C CNN
F 2 "TO_SOT_Packages_SMD:SOT-23-5" H 1600 2600 60  0001 C CNN
F 3 "" H 1600 2600 60  0001 C CNN
F 4 "576-4764-1-ND" H 1350 3250 50  0001 C CNN "DigiKey PN"
	1    1600 2600
	1    0    0    -1  
$EndComp
$Comp
L C_Small C2
U 1 1 5981B118
P 930 2370
F 0 "C2" H 940 2440 50  0000 L CNN
F 1 "1uF" H 940 2290 50  0000 L CNN
F 2 "Capacitors_SMD:C_0805" H 930 2370 50  0001 C CNN
F 3 "" H 930 2370 50  0000 C CNN
F 4 "1276-1448-1-ND" H 940 2540 50  0001 C CNN "DigiKey PN"
	1    930  2370
	1    0    0    -1  
$EndComp
$Comp
L C_Small C6
U 1 1 5981B326
P 2120 2200
F 0 "C6" H 2130 2270 50  0000 L CNN
F 1 "1uF" H 2130 2120 50  0000 L CNN
F 2 "Capacitors_SMD:C_0805" H 2120 2200 50  0001 C CNN
F 3 "" H 2120 2200 50  0000 C CNN
F 4 "1276-1448-1-ND" H 2130 2370 50  0001 C CNN "DigiKey PN"
	1    2120 2200
	1    0    0    -1  
$EndComp
$Comp
L R_Small R2
U 1 1 5981B6C8
P 2440 2350
F 0 "R2" H 2470 2370 50  0000 L CNN
F 1 "1k" H 2470 2310 50  0000 L CNN
F 2 "Resistors_SMD:R_0805" H 2440 2350 50  0001 C CNN
F 3 "" H 2440 2350 50  0000 C CNN
F 4 "RMCF0805JT1K00CT-ND" H 2470 2470 50  0001 C CNN "DigiKey PN"
	1    2440 2350
	-1   0    0    1   
$EndComp
$Comp
L GND #PWR4
U 1 1 5981BBF8
P 930 2570
F 0 "#PWR4" H 930 2320 50  0001 C CNN
F 1 "GND" H 930 2420 50  0000 C CNN
F 2 "" H 930 2570 50  0000 C CNN
F 3 "" H 930 2570 50  0000 C CNN
	1    930  2570
	-1   0    0    -1  
$EndComp
$Comp
L +5V #PWR3
U 1 1 5981BD8F
P 930 2190
F 0 "#PWR3" H 930 2040 50  0001 C CNN
F 1 "+5V" H 930 2330 50  0000 C CNN
F 2 "" H 930 2190 50  0000 C CNN
F 3 "" H 930 2190 50  0000 C CNN
	1    930  2190
	-1   0    0    -1  
$EndComp
$Comp
L +3.3V #PWR9
U 1 1 5981DF4B
P 2300 1980
F 0 "#PWR9" H 2300 1830 50  0001 C CNN
F 1 "+3.3V" H 2300 2120 50  0000 C CNN
F 2 "" H 2300 1980 50  0001 C CNN
F 3 "" H 2300 1980 50  0001 C CNN
	1    2300 1980
	1    0    0    -1  
$EndComp
$Comp
L 4050 U1
U 1 1 5981E660
P 1430 4500
F 0 "U1" H 1625 4615 50  0000 C CNN
F 1 "4050" H 1620 4375 50  0000 C CNN
F 2 "SMD_Packages:SOIC-14_N" H 1430 4500 60  0001 C CNN
F 3 "" H 1430 4500 60  0001 C CNN
F 4 "1727-6331-1-ND" H 1625 4715 50  0001 C CNN "DigiKey PN"
	1    1430 4500
	0    1    1    0   
$EndComp
$Comp
L 4050 U1
U 2 1 5981E74F
P 1730 4500
F 0 "U1" H 1925 4615 50  0000 C CNN
F 1 "4050" H 1920 4375 50  0000 C CNN
F 2 "SMD_Packages:SOIC-14_N" H 1730 4500 60  0001 C CNN
F 3 "" H 1730 4500 60  0001 C CNN
F 4 "1727-6331-1-ND" H 1925 4715 50  0001 C CNN "DigiKey PN"
	2    1730 4500
	0    1    1    0   
$EndComp
$Comp
L 4050 U1
U 3 1 5981E844
P 1880 3740
F 0 "U1" H 2075 3855 50  0000 C CNN
F 1 "4050" H 2070 3615 50  0000 C CNN
F 2 "SMD_Packages:SOIC-14_N" H 1880 3740 60  0001 C CNN
F 3 "" H 1880 3740 60  0001 C CNN
F 4 "1727-6331-1-ND" H 2075 3955 50  0001 C CNN "DigiKey PN"
	3    1880 3740
	1    0    0    -1  
$EndComp
$Comp
L 4050 U1
U 4 1 5981E8C1
P 2030 4500
F 0 "U1" H 2225 4615 50  0000 C CNN
F 1 "4050" H 2220 4375 50  0000 C CNN
F 2 "SMD_Packages:SOIC-14_N" H 2030 4500 60  0001 C CNN
F 3 "" H 2030 4500 60  0001 C CNN
F 4 "1727-6331-1-ND" H 2225 4715 50  0001 C CNN "DigiKey PN"
	4    2030 4500
	0    1    1    0   
$EndComp
$Comp
L 4050 U1
U 5 1 5981E94E
P 3470 4310
F 0 "U1" H 3665 4425 50  0000 C CNN
F 1 "4050" H 3660 4185 50  0000 C CNN
F 2 "SMD_Packages:SOIC-14_N" H 3470 4310 60  0001 C CNN
F 3 "" H 3470 4310 60  0001 C CNN
F 4 "1727-6331-1-ND" H 3665 4525 50  0001 C CNN "DigiKey PN"
	5    3470 4310
	1    0    0    -1  
$EndComp
$Comp
L 4050 U1
U 6 1 5981E9B9
P 3470 4840
F 0 "U1" H 3665 4955 50  0000 C CNN
F 1 "4050" H 3660 4715 50  0000 C CNN
F 2 "SMD_Packages:SOIC-14_N" H 3470 4840 60  0001 C CNN
F 3 "" H 3470 4840 60  0001 C CNN
F 4 "1727-6331-1-ND" H 3665 5055 50  0001 C CNN "DigiKey PN"
	6    3470 4840
	1    0    0    -1  
$EndComp
$Comp
L GND #PWR5
U 1 1 5981F886
P 1220 5230
F 0 "#PWR5" H 1220 4980 50  0001 C CNN
F 1 "GND" H 1220 5080 50  0000 C CNN
F 2 "" H 1220 5230 50  0000 C CNN
F 3 "" H 1220 5230 50  0000 C CNN
	1    1220 5230
	-1   0    0    -1  
$EndComp
$Comp
L GND #PWR14
U 1 1 5981F8E5
P 3000 5030
F 0 "#PWR14" H 3000 4780 50  0001 C CNN
F 1 "GND" H 3000 4880 50  0000 C CNN
F 2 "" H 3000 5030 50  0000 C CNN
F 3 "" H 3000 5030 50  0000 C CNN
	1    3000 5030
	-1   0    0    -1  
$EndComp
$Comp
L R_Small R1
U 1 1 5981F9A4
P 2330 4690
F 0 "R1" H 2360 4710 50  0000 L CNN
F 1 "1k" H 2360 4650 50  0000 L CNN
F 2 "Resistors_SMD:R_0805" H 2330 4690 50  0001 C CNN
F 3 "" H 2330 4690 50  0000 C CNN
F 4 "RMCF0805JT1K00CT-ND" H 2360 4810 50  0001 C CNN "DigiKey PN"
	1    2330 4690
	-1   0    0    1   
$EndComp
$Comp
L LED-RESCUE-odin_sd D1
U 1 1 5981FB3A
P 2330 4230
F 0 "D1" H 2330 4330 50  0000 C CNN
F 1 "LED" H 2330 4130 50  0000 C CNN
F 2 "LEDs:LED_0805" H 2330 4230 50  0001 C CNN
F 3 "" H 2330 4230 50  0000 C CNN
F 4 "475-1278-1-ND" H 2330 4430 50  0001 C CNN "DigiKey PN"
	1    2330 4230
	0    -1   -1   0   
$EndComp
$Comp
L +3.3V #PWR8
U 1 1 59823BCA
P 1830 5310
F 0 "#PWR8" H 1830 5160 50  0001 C CNN
F 1 "+3.3V" H 1830 5450 50  0000 C CNN
F 2 "" H 1830 5310 50  0001 C CNN
F 3 "" H 1830 5310 50  0001 C CNN
	1    1830 5310
	1    0    0    -1  
$EndComp
$Comp
L +3.3V #PWR17
U 1 1 59823E90
P 3420 4130
F 0 "#PWR17" H 3420 3980 50  0001 C CNN
F 1 "+3.3V" H 3420 4270 50  0000 C CNN
F 2 "" H 3420 4130 50  0001 C CNN
F 3 "" H 3420 4130 50  0001 C CNN
	1    3420 4130
	1    0    0    -1  
$EndComp
$Comp
L GND #PWR18
U 1 1 59824021
P 3420 4460
F 0 "#PWR18" H 3420 4210 50  0001 C CNN
F 1 "GND" H 3420 4310 50  0000 C CNN
F 2 "" H 3420 4460 50  0000 C CNN
F 3 "" H 3420 4460 50  0000 C CNN
	1    3420 4460
	-1   0    0    -1  
$EndComp
$Comp
L CP1_Small C3
U 1 1 59826140
P 1660 1080
F 0 "C3" H 1670 1150 50  0000 L CNN
F 1 "0.1uF" H 1670 1000 50  0000 L CNN
F 2 "Capacitors_SMD:C_0805" H 1660 1080 50  0001 C CNN
F 3 "" H 1660 1080 50  0001 C CNN
F 4 "1276-1022-1-ND" H 1670 1250 50  0001 C CNN "DigiKey PN"
	1    1660 1080
	1    0    0    -1  
$EndComp
$Comp
L C_Small C1
U 1 1 59826968
P 880 4570
F 0 "C1" H 890 4640 50  0000 L CNN
F 1 "0.1uF" H 890 4490 50  0000 L CNN
F 2 "Capacitors_SMD:C_0805" H 880 4570 50  0001 C CNN
F 3 "" H 880 4570 50  0000 C CNN
F 4 "1276-1022-1-ND" H 890 4740 50  0001 C CNN "DigiKey PN"
	1    880  4570
	1    0    0    -1  
$EndComp
$Comp
L GND #PWR2
U 1 1 59826D52
P 880 4720
F 0 "#PWR2" H 880 4470 50  0001 C CNN
F 1 "GND" H 880 4570 50  0000 C CNN
F 2 "" H 880 4720 50  0000 C CNN
F 3 "" H 880 4720 50  0000 C CNN
	1    880  4720
	-1   0    0    -1  
$EndComp
$Comp
L +3.3V #PWR1
U 1 1 59826E35
P 880 4410
F 0 "#PWR1" H 880 4260 50  0001 C CNN
F 1 "+3.3V" H 880 4550 50  0000 C CNN
F 2 "" H 880 4410 50  0001 C CNN
F 3 "" H 880 4410 50  0001 C CNN
	1    880  4410
	1    0    0    -1  
$EndComp
$Comp
L SHT31 U5
U 1 1 59A815BF
P 8930 1380
F 0 "U5" H 8930 1780 60  0000 C CNN
F 1 "SHT31-DIS" H 8930 1580 60  0000 C CNN
F 2 "Housings_DFN_QFN:DFN-8-1EP_3x3mm_Pitch0.5mm" H 8930 1380 60  0001 C CNN
F 3 "" H 8930 1380 60  0001 C CNN
F 4 "1649-1011-1-ND" H 8930 1880 50  0001 C CNN "DigiKey PN"
	1    8930 1380
	1    0    0    -1  
$EndComp
$Comp
L ATMEGA328P-AU U4
U 1 1 59C0FD6C
P 7760 3870
F 0 "U4" H 7010 5120 50  0000 L BNN
F 1 "ATMEGA328P-AU" H 8160 2470 50  0000 L BNN
F 2 "Housings_QFP:TQFP-32_7x7mm_Pitch0.8mm" H 7760 3870 50  0001 C CIN
F 3 "" H 7760 3870 50  0001 C CNN
F 4 "ATMEGA328-AU-ND" H 7010 5220 50  0001 C CNN "DigiKey PN"
	1    7760 3870
	1    0    0    -1  
$EndComp
$Comp
L +5V #PWR30
U 1 1 59C1278F
P 6760 2720
F 0 "#PWR30" H 6760 2570 50  0001 C CNN
F 1 "+5V" H 6760 2860 50  0000 C CNN
F 2 "" H 6760 2720 50  0000 C CNN
F 3 "" H 6760 2720 50  0000 C CNN
	1    6760 2720
	1    0    0    -1  
$EndComp
$Comp
L C_Small C9
U 1 1 59C132A8
P 6660 3530
F 0 "C9" H 6670 3600 50  0000 L CNN
F 1 "0.1uF" H 6670 3450 50  0000 L CNN
F 2 "Capacitors_SMD:C_0805" H 6660 3530 50  0001 C CNN
F 3 "" H 6660 3530 50  0000 C CNN
F 4 "1276-1022-1-ND" H 6670 3700 50  0001 C CNN "DigiKey PN"
	1    6660 3530
	1    0    0    -1  
$EndComp
$Comp
L GND #PWR29
U 1 1 59C133F0
P 6660 3670
F 0 "#PWR29" H 6660 3420 50  0001 C CNN
F 1 "GND" H 6660 3520 50  0000 C CNN
F 2 "" H 6660 3670 50  0000 C CNN
F 3 "" H 6660 3670 50  0000 C CNN
	1    6660 3670
	1    0    0    -1  
$EndComp
$Comp
L Crystal Y1
U 1 1 59C13A05
P 9900 2960
F 0 "Y1" H 9900 3110 50  0000 C CNN
F 1 "16MHz" H 9900 2810 50  0000 C CNN
F 2 "Crystals:Crystal_SMD_3225-4pin_3.2x2.5mm" H 9900 2960 50  0001 C CNN
F 3 "" H 9900 2960 50  0001 C CNN
F 4 "535-13436-1-ND" H 9900 3210 50  0001 C CNN "DigiKey PN"
	1    9900 2960
	0    1    1    0   
$EndComp
$Comp
L AVR-ISP-6 CON1
U 1 1 59C13F0A
P 8210 5970
F 0 "CON1" H 8105 6210 50  0000 C CNN
F 1 "AVR-ISP-6" H 7945 5740 50  0000 L BNN
F 2 "Pin_Headers:Pin_Header_Straight_1x06_Pitch2.54mm_SMD_Pin1Left" V 7690 6010 50  0001 C CNN
F 3 "" H 8185 5970 50  0001 C CNN
F 4 "952-1922-ND" H 8105 6310 50  0001 C CNN "DigiKey PN"
	1    8210 5970
	1    0    0    -1  
$EndComp
$Comp
L GND #PWR33
U 1 1 59C15490
P 8700 6070
F 0 "#PWR33" H 8700 5820 50  0001 C CNN
F 1 "GND" H 8700 5920 50  0000 C CNN
F 2 "" H 8700 6070 50  0000 C CNN
F 3 "" H 8700 6070 50  0000 C CNN
	1    8700 6070
	1    0    0    -1  
$EndComp
$Comp
L GND #PWR34
U 1 1 59C171B3
P 8930 2110
F 0 "#PWR34" H 8930 1860 50  0001 C CNN
F 1 "GND" H 8930 1960 50  0000 C CNN
F 2 "" H 8930 2110 50  0000 C CNN
F 3 "" H 8930 2110 50  0000 C CNN
	1    8930 2110
	1    0    0    -1  
$EndComp
$Comp
L C_Small C10
U 1 1 59C186DB
P 9730 970
F 0 "C10" H 9740 1040 50  0000 L CNN
F 1 "0.1uF" H 9740 890 50  0000 L CNN
F 2 "Capacitors_SMD:C_0805" H 9730 970 50  0001 C CNN
F 3 "" H 9730 970 50  0000 C CNN
F 4 "1276-1022-1-ND" H 9740 1140 50  0001 C CNN "DigiKey PN"
	1    9730 970 
	1    0    0    -1  
$EndComp
$Comp
L GND #PWR38
U 1 1 59C1894A
P 9730 1070
F 0 "#PWR38" H 9730 820 50  0001 C CNN
F 1 "GND" H 9730 920 50  0000 C CNN
F 2 "" H 9730 1070 50  0000 C CNN
F 3 "" H 9730 1070 50  0000 C CNN
	1    9730 1070
	1    0    0    -1  
$EndComp
$Comp
L +5V #PWR35
U 1 1 59C18CE3
P 9430 800
F 0 "#PWR35" H 9430 650 50  0001 C CNN
F 1 "+5V" H 9430 940 50  0000 C CNN
F 2 "" H 9430 800 50  0000 C CNN
F 3 "" H 9430 800 50  0000 C CNN
	1    9430 800 
	1    0    0    -1  
$EndComp
$Comp
L R_Small R7
U 1 1 59C19385
P 10070 1100
F 0 "R7" H 10100 1120 50  0000 L CNN
F 1 "10k" H 10100 1060 50  0000 L CNN
F 2 "Resistors_SMD:R_0805" H 10070 1100 50  0001 C CNN
F 3 "" H 10070 1100 50  0000 C CNN
F 4 "RMCF0805JT10K0CT-ND" H 10100 1220 50  0001 C CNN "DigiKey PN"
	1    10070 1100
	1    0    0    -1  
$EndComp
$Comp
L R_Small R8
U 1 1 59C196E3
P 10470 1090
F 0 "R8" H 10500 1110 50  0000 L CNN
F 1 "10k" H 10500 1050 50  0000 L CNN
F 2 "Resistors_SMD:R_0805" H 10470 1090 50  0001 C CNN
F 3 "" H 10470 1090 50  0000 C CNN
F 4 "RMCF0805JT10K0CT-ND" H 10500 1210 50  0001 C CNN "DigiKey PN"
	1    10470 1090
	1    0    0    -1  
$EndComp
$Comp
L CONN_01X08 J4
U 1 1 59C23535
P 5600 3200
F 0 "J4" H 5600 3650 50  0000 C CNN
F 1 "CO" V 5700 3200 50  0000 C CNN
F 2 "Pin_Headers:Pin_Header_Straight_1x08_Pitch2.54mm_SMD_Pin1Left" H 5600 3200 50  0001 C CNN
F 3 "" H 5600 3200 50  0001 C CNN
F 4 "S1013EC-08-ND" H 5600 3750 50  0001 C CNN "DigiKey PN"
	1    5600 3200
	1    0    0    -1  
$EndComp
$Comp
L CONN_01X08 J3
U 1 1 59C23620
P 5590 4220
F 0 "J3" H 5590 4670 50  0000 C CNN
F 1 "NO2" V 5690 4220 50  0000 C CNN
F 2 "Pin_Headers:Pin_Header_Straight_1x08_Pitch2.54mm_SMD_Pin1Left" H 5590 4220 50  0001 C CNN
F 3 "" H 5590 4220 50  0001 C CNN
F 4 "S1013EC-08-ND" H 5590 4770 50  0001 C CNN "DigiKey PN"
	1    5590 4220
	1    0    0    -1  
$EndComp
$Comp
L GND #PWR22
U 1 1 59C2443C
P 4910 3380
F 0 "#PWR22" H 4910 3130 50  0001 C CNN
F 1 "GND" H 4910 3230 50  0000 C CNN
F 2 "" H 4910 3380 50  0000 C CNN
F 3 "" H 4910 3380 50  0000 C CNN
	1    4910 3380
	1    0    0    -1  
$EndComp
$Comp
L GND #PWR24
U 1 1 59C259B6
P 5110 4370
F 0 "#PWR24" H 5110 4120 50  0001 C CNN
F 1 "GND" H 5110 4220 50  0000 C CNN
F 2 "" H 5110 4370 50  0000 C CNN
F 3 "" H 5110 4370 50  0000 C CNN
	1    5110 4370
	1    0    0    -1  
$EndComp
$Comp
L SIM800Lbreakout J2
U 1 1 59C1C492
P 4510 1390
F 0 "J2" H 4510 1790 50  0000 C CNN
F 1 "SIM800Lbreakout" V 4710 1390 50  0000 C CNN
F 2 "Pin_Headers:Pin_Header_Straight_1x07_Pitch2.54mm_SMD_Pin1Left" H 4510 1390 50  0001 C CNN
F 3 "" H 4510 1390 50  0001 C CNN
F 4 "S1013EC-07-ND" H 4510 1890 50  0001 C CNN "DigiKey PN"
	1    4510 1390
	1    0    0    -1  
$EndComp
$Comp
L +5V #PWR20
U 1 1 59C1C699
P 4190 1070
F 0 "#PWR20" H 4190 920 50  0001 C CNN
F 1 "+5V" H 4190 1210 50  0000 C CNN
F 2 "" H 4190 1070 50  0000 C CNN
F 3 "" H 4190 1070 50  0000 C CNN
	1    4190 1070
	1    0    0    -1  
$EndComp
$Comp
L GND #PWR19
U 1 1 59C1C719
P 3990 1600
F 0 "#PWR19" H 3990 1350 50  0001 C CNN
F 1 "GND" H 3990 1450 50  0000 C CNN
F 2 "" H 3990 1600 50  0000 C CNN
F 3 "" H 3990 1600 50  0000 C CNN
	1    3990 1600
	1    0    0    -1  
$EndComp
$Comp
L LED D2
U 1 1 59C26336
P 3300 2970
F 0 "D2" H 3300 3070 50  0000 C CNN
F 1 "LED-RED" H 3300 2870 50  0000 C CNN
F 2 "LEDs:LED_0805" H 3300 2970 50  0001 C CNN
F 3 "" H 3300 2970 50  0001 C CNN
F 4 "475-1278-1-ND" H 3300 3170 50  0001 C CNN "DigiKey PN"
	1    3300 2970
	1    0    0    -1  
$EndComp
$Comp
L LED D3
U 1 1 59C2640A
P 3300 3370
F 0 "D3" H 3300 3470 50  0000 C CNN
F 1 "LED-GREEN" H 3300 3270 50  0000 C CNN
F 2 "LEDs:LED_0805" H 3300 3370 50  0001 C CNN
F 3 "" H 3300 3370 50  0001 C CNN
F 4 "475-1410-1-ND" H 3300 3570 50  0001 C CNN "DigiKey PN"
	1    3300 3370
	1    0    0    -1  
$EndComp
$Comp
L +5V #PWR12
U 1 1 59C2F0C7
P 2580 2050
F 0 "#PWR12" H 2580 1900 50  0001 C CNN
F 1 "+5V" H 2580 2190 50  0000 C CNN
F 2 "" H 2580 2050 50  0000 C CNN
F 3 "" H 2580 2050 50  0000 C CNN
	1    2580 2050
	-1   0    0    -1  
$EndComp
$Comp
L C_Small C4
U 1 1 59C2FB3C
P 10190 3280
F 0 "C4" H 10200 3350 50  0000 L CNN
F 1 "30pF" H 10200 3200 50  0000 L CNN
F 2 "Capacitors_SMD:C_0805" H 10190 3280 50  0001 C CNN
F 3 "" H 10190 3280 50  0000 C CNN
F 4 "1276-1130-1-ND" H 10200 3450 50  0001 C CNN "DigiKey PN"
	1    10190 3280
	1    0    0    -1  
$EndComp
$Comp
L C_Small C5
U 1 1 59C2FE36
P 10440 3290
F 0 "C5" H 10450 3360 50  0000 L CNN
F 1 "30pF" H 10450 3210 50  0000 L CNN
F 2 "Capacitors_SMD:C_0805" H 10440 3290 50  0001 C CNN
F 3 "" H 10440 3290 50  0000 C CNN
F 4 "1276-1130-1-ND" H 10450 3460 50  0001 C CNN "DigiKey PN"
	1    10440 3290
	1    0    0    -1  
$EndComp
$Comp
L GND #PWR39
U 1 1 59C300FC
P 10340 3510
F 0 "#PWR39" H 10340 3260 50  0001 C CNN
F 1 "GND" H 10340 3360 50  0000 C CNN
F 2 "" H 10340 3510 50  0000 C CNN
F 3 "" H 10340 3510 50  0000 C CNN
	1    10340 3510
	1    0    0    -1  
$EndComp
$Comp
L +5V #PWR36
U 1 1 59C309D0
P 9710 3810
F 0 "#PWR36" H 9710 3660 50  0001 C CNN
F 1 "+5V" H 9710 3950 50  0000 C CNN
F 2 "" H 9710 3810 50  0000 C CNN
F 3 "" H 9710 3810 50  0000 C CNN
	1    9710 3810
	1    0    0    -1  
$EndComp
$Comp
L GND #PWR37
U 1 1 59C30A56
P 9710 4640
F 0 "#PWR37" H 9710 4390 50  0001 C CNN
F 1 "GND" H 9710 4490 50  0000 C CNN
F 2 "" H 9710 4640 50  0000 C CNN
F 3 "" H 9710 4640 50  0000 C CNN
	1    9710 4640
	1    0    0    -1  
$EndComp
$Comp
L R_Small R9
U 1 1 59C30B57
P 9710 4020
F 0 "R9" H 9740 4040 50  0000 L CNN
F 1 "10k" H 9740 3980 50  0000 L CNN
F 2 "Resistors_SMD:R_0805" H 9710 4020 50  0001 C CNN
F 3 "" H 9710 4020 50  0000 C CNN
F 4 "RMCF0805JT10K0CT-ND" H 9740 4140 50  0001 C CNN "DigiKey PN"
	1    9710 4020
	1    0    0    -1  
$EndComp
$Comp
L SWITCH_SPST SW1
U 1 1 59C3282A
P 9710 4440
F 0 "SW1" H 9710 4590 60  0000 C CNN
F 1 "SWITCH_SPST" H 9710 4340 60  0000 C CNN
F 2 "Buttons_Switches_SMD:SW_SPST_B3S-1000" H 9710 4440 60  0001 C CNN
F 3 "" H 9710 4440 60  0000 C CNN
F 4 "EG4620CT-ND" H 9710 4690 50  0001 C CNN "DigiKey PN"
	1    9710 4440
	0    -1   -1   0   
$EndComp
Text Label 8910 2770 0    60   ~ 0
DustRXI
Text Label 8910 2970 0    60   ~ 0
D10
Text Label 8910 3070 0    60   ~ 0
D11
Text Label 8910 3170 0    60   ~ 0
D12
Text Label 8910 3270 0    60   ~ 0
D13
Text Label 6320 1220 0    60   ~ 0
DustSleep
Text Label 6320 1420 0    60   ~ 0
DustRXI
Text Label 3650 6600 0    60   ~ 0
SDA
Text Label 3650 6750 0    60   ~ 0
SCL
Text Label 5950 6200 0    60   ~ 0
ClockWake
Text Label 4150 2970 0    60   ~ 0
RedLED
Text Label 4150 3370 0    60   ~ 0
GreenLED
Text Label 1530 5380 1    60   ~ 0
D12
Text Label 2030 4050 1    60   ~ 0
D10
Text Label 1730 4050 1    60   ~ 0
D11
Text Label 1430 4040 1    60   ~ 0
D13
Text Label 8910 3370 0    60   ~ 0
XTAL1
Text Label 8910 3470 0    60   ~ 0
XTAL2
Text Label 8910 3620 0    60   ~ 0
RXICO
Text Label 8910 3720 0    60   ~ 0
TXOCO
Text Label 8910 3820 0    60   ~ 0
A2
Text Label 8910 3920 0    60   ~ 0
A3
Text Label 8910 4020 0    60   ~ 0
SDA
Text Label 8910 4120 0    60   ~ 0
SCL
Text Label 8910 4220 0    60   ~ 0
RST
Text Label 8910 4570 0    60   ~ 0
TXONO2
Text Label 8910 4670 0    60   ~ 0
ClockWake
Text Label 8910 4770 0    60   ~ 0
RXINO2
Text Label 8910 4870 0    60   ~ 0
RedLED
Text Label 8910 4970 0    60   ~ 0
GreenLED
Text Label 8910 4370 0    60   ~ 0
RXI
Text Label 8910 4470 0    60   ~ 0
TXO
Text Label 6710 4120 2    60   ~ 0
A6
Text Label 6710 4220 2    60   ~ 0
A7
Text Label 8910 2870 0    60   ~ 0
DustTXO
Text Label 9900 2810 2    60   ~ 0
XTAL1
Text Label 9900 3110 2    60   ~ 0
XTAL2
Text Label 7730 5870 2    60   ~ 0
D12
Text Label 7730 5970 2    60   ~ 0
D13
Text Label 7730 6070 2    60   ~ 0
RST
Text Label 8700 5970 0    60   ~ 0
D11
Text Label 10240 1280 0    60   ~ 0
SCL
Text Label 10640 1480 0    60   ~ 0
SDA
Text Label 4870 2740 2    60   ~ 0
TXOCO
Text Label 5240 3050 2    60   ~ 0
RXICO
Text Label 4780 3850 2    60   ~ 0
TXONO2
Text Label 5390 4070 2    60   ~ 0
RXINO2
Wire Wire Line
	2350 990  2350 840 
Wire Wire Line
	2350 1290 2350 1390
Wire Wire Line
	8910 2770 8760 2770
Wire Wire Line
	8910 2970 8760 2970
Wire Wire Line
	5800 5900 5800 6000
Wire Wire Line
	4450 5750 4450 5600
Wire Wire Line
	3800 6600 3650 6600
Wire Wire Line
	3800 6750 3650 6750
Wire Wire Line
	6470 1020 6370 1020
Wire Wire Line
	6370 1020 6370 920 
Wire Wire Line
	6470 1220 6320 1220
Wire Wire Line
	6470 1420 6320 1420
Wire Wire Line
	3400 6000 3400 6150
Wire Wire Line
	3400 6350 3400 6450
Wire Wire Line
	3400 6350 3800 6350
Wire Wire Line
	3400 6150 3800 6150
Wire Wire Line
	3800 6150 3800 6200
Wire Wire Line
	6370 920  5820 920 
Wire Wire Line
	5820 920  5820 870 
Wire Wire Line
	5820 1120 6470 1120
Wire Wire Line
	5820 1170 5820 1120
Wire Wire Line
	3450 2970 3800 2970
Wire Wire Line
	3450 3370 3800 3370
Wire Wire Line
	4000 2970 4150 2970
Wire Wire Line
	4000 3370 4150 3370
Wire Wire Line
	5600 6200 5950 6200
Wire Wire Line
	930  2190 930  2270
Wire Wire Line
	1200 2300 1200 2230
Wire Wire Line
	1200 2230 930  2230
Wire Wire Line
	930  2470 930  2570
Wire Wire Line
	1200 2450 1200 2520
Wire Wire Line
	1200 2520 930  2520
Wire Wire Line
	2050 2450 2440 2450
Wire Wire Line
	2050 2300 2120 2300
Wire Wire Line
	2120 2100 2120 2060
Wire Wire Line
	2300 1980 2300 2060
Wire Wire Line
	2030 5380 2030 4950
Wire Wire Line
	1930 5380 1930 4950
Wire Wire Line
	1930 4950 1730 4950
Wire Wire Line
	1730 5010 1730 5380
Wire Wire Line
	1730 5010 1430 5010
Wire Wire Line
	1430 5010 1430 4950
Wire Wire Line
	1630 5200 1630 5380
Wire Wire Line
	1430 4050 1430 3740
Wire Wire Line
	2330 3740 2330 4030
Wire Wire Line
	2330 4430 2330 4590
Wire Wire Line
	2330 4790 2330 5020
Wire Wire Line
	2330 5020 2030 5020
Wire Wire Line
	1630 5200 1220 5200
Wire Wire Line
	1220 5200 1220 5230
Wire Wire Line
	3020 4840 3000 4840
Wire Wire Line
	3000 4310 3000 5030
Wire Wire Line
	3000 4310 3020 4310
Wire Wire Line
	1830 5310 1830 5380
Wire Wire Line
	3420 4460 3420 4410
Wire Wire Line
	3420 4130 3420 4210
Wire Wire Line
	880  4410 880  4470
Wire Wire Line
	880  4670 880  4720
Wire Wire Line
	8760 3070 8910 3070
Wire Wire Line
	8760 3170 8910 3170
Wire Wire Line
	8760 3270 8910 3270
Wire Wire Line
	8760 3370 8910 3370
Wire Wire Line
	8760 3470 8910 3470
Wire Wire Line
	8760 3620 8910 3620
Wire Wire Line
	8760 3720 8910 3720
Wire Wire Line
	8760 3820 8910 3820
Wire Wire Line
	8760 3920 8910 3920
Wire Wire Line
	8760 4020 8910 4020
Wire Wire Line
	8760 4120 8910 4120
Wire Wire Line
	8760 4220 9710 4220
Wire Wire Line
	8760 4370 8910 4370
Wire Wire Line
	8760 4470 8910 4470
Wire Wire Line
	8760 4570 8910 4570
Wire Wire Line
	8760 4670 8910 4670
Wire Wire Line
	8760 4770 8910 4770
Wire Wire Line
	8760 4870 8910 4870
Wire Wire Line
	8760 4970 8910 4970
Wire Wire Line
	6860 2870 6760 2870
Wire Wire Line
	6760 2720 6760 3070
Wire Wire Line
	6760 3070 6860 3070
Wire Wire Line
	6860 2770 6760 2770
Wire Wire Line
	6860 4120 6710 4120
Wire Wire Line
	6860 4220 6710 4220
Wire Wire Line
	6860 4870 6760 4870
Wire Wire Line
	6760 4870 6760 5120
Wire Wire Line
	6860 4970 6760 4970
Wire Wire Line
	6860 5070 6760 5070
Wire Wire Line
	8760 2870 8910 2870
Wire Wire Line
	6860 3370 6660 3370
Wire Wire Line
	6660 3370 6660 3430
Wire Wire Line
	6660 3630 6660 3670
Wire Wire Line
	8060 5870 7730 5870
Wire Wire Line
	8060 5970 7730 5970
Wire Wire Line
	8060 6070 7730 6070
Wire Wire Line
	8310 5870 8700 5870
Wire Wire Line
	8310 5970 8700 5970
Wire Wire Line
	8310 6070 8700 6070
Wire Wire Line
	2880 3200 2880 3170
Wire Wire Line
	8430 1480 8430 2060
Wire Wire Line
	9430 2060 9430 1680
Wire Wire Line
	8930 2030 8930 2110
Wire Wire Line
	8430 2060 9430 2060
Wire Wire Line
	9430 800  9430 1080
Wire Wire Line
	9430 870  10470 870 
Wire Wire Line
	9430 1280 10240 1280
Wire Wire Line
	9430 1480 10640 1480
Wire Wire Line
	10070 870  10070 1000
Wire Wire Line
	10470 870  10470 990 
Wire Wire Line
	10070 1200 10070 1280
Wire Wire Line
	10470 1190 10470 1480
Wire Wire Line
	4870 2950 5400 2950
Wire Wire Line
	5400 3050 5240 3050
Wire Wire Line
	4910 3350 5400 3350
Wire Wire Line
	4910 3350 4910 3380
Wire Wire Line
	5400 3550 5080 3550
Wire Wire Line
	4900 3970 5390 3970
Wire Wire Line
	5110 4370 5390 4370
Wire Wire Line
	5390 4570 5240 4570
Wire Wire Line
	4310 1090 4190 1090
Wire Wire Line
	4190 1070 4190 1290
Wire Wire Line
	4190 1290 4310 1290
Wire Wire Line
	4310 1590 3990 1590
Wire Wire Line
	3990 1190 3990 1600
Wire Wire Line
	4310 1190 3990 1190
Wire Wire Line
	4310 1390 4190 1390
Wire Wire Line
	4310 1490 4190 1490
Wire Wire Line
	4310 1690 4190 1690
Wire Wire Line
	3150 2970 3050 2970
Wire Wire Line
	3050 2970 3050 3370
Wire Wire Line
	3050 3370 3150 3370
Wire Wire Line
	2300 2060 2120 2060
Wire Wire Line
	2440 2250 2440 2050
Wire Wire Line
	2440 2050 2580 2050
Wire Wire Line
	1460 1310 1660 1310
Wire Wire Line
	1660 1180 1660 1320
Wire Wire Line
	1460 910  1660 910 
Wire Wire Line
	1660 880  1660 980 
Wire Wire Line
	10190 3380 10190 3510
Wire Wire Line
	10190 3510 10440 3510
Wire Wire Line
	10440 3510 10440 3390
Wire Wire Line
	10190 3180 9900 3180
Wire Wire Line
	9900 3180 9900 3110
Wire Wire Line
	10440 3190 10440 2810
Wire Wire Line
	10440 2810 9900 2810
Wire Wire Line
	9710 4120 9710 4240
Wire Wire Line
	9710 3810 9710 3920
Connection ~ 5800 6200
Connection ~ 930  2230
Connection ~ 930  2520
Connection ~ 2030 5020
Connection ~ 3000 4840
Connection ~ 6760 2870
Connection ~ 6760 2770
Connection ~ 6760 4970
Connection ~ 6760 5070
Connection ~ 8930 2060
Connection ~ 8430 1680
Connection ~ 9430 870 
Connection ~ 9730 870 
Connection ~ 10070 870 
Connection ~ 10070 1280
Connection ~ 10470 1480
Connection ~ 4190 1090
Connection ~ 3990 1590
Connection ~ 1660 910 
Connection ~ 1660 1310
Connection ~ 10340 3510
Connection ~ 9710 4220
Text Label 4190 1390 0    60   ~ 0
RXI
Text Label 4190 1490 0    60   ~ 0
TXO
Text Label 4190 1690 0    60   ~ 0
RST
Wire Wire Line
	2880 3170 3050 3170
Connection ~ 3050 3170
$Comp
L +3.3V #PWR?
U 1 1 5A16FD29
P 5240 4570
F 0 "#PWR?" H 5240 4420 50  0001 C CNN
F 1 "+3.3V" H 5240 4710 50  0000 C CNN
F 2 "" H 5240 4570 50  0001 C CNN
F 3 "" H 5240 4570 50  0001 C CNN
	1    5240 4570
	1    0    0    -1  
$EndComp
$Comp
L +3.3V #PWR?
U 1 1 5A16FE03
P 5080 3550
F 0 "#PWR?" H 5080 3400 50  0001 C CNN
F 1 "+3.3V" H 5080 3690 50  0000 C CNN
F 2 "" H 5080 3550 50  0001 C CNN
F 3 "" H 5080 3550 50  0001 C CNN
	1    5080 3550
	1    0    0    -1  
$EndComp
$Comp
L R_Small R?
U 1 1 5A1715A6
P 4780 3950
F 0 "R?" H 4810 3970 50  0000 L CNN
F 1 "1k" H 4810 3910 50  0000 L CNN
F 2 "Resistors_SMD:R_0805" H 4780 3950 50  0001 C CNN
F 3 "" H 4780 3950 50  0000 C CNN
F 4 "RMCF0805JT1K00CT-ND" H 4810 4070 50  0001 C CNN "DigiKey PN"
	1    4780 3950
	-1   0    0    1   
$EndComp
$Comp
L R_Small R?
U 1 1 5A171BCC
P 4780 4180
F 0 "R?" H 4810 4200 50  0000 L CNN
F 1 "1k" H 4810 4140 50  0000 L CNN
F 2 "Resistors_SMD:R_0805" H 4780 4180 50  0001 C CNN
F 3 "" H 4780 4180 50  0000 C CNN
F 4 "RMCF0805JT1K00CT-ND" H 4810 4300 50  0001 C CNN "DigiKey PN"
	1    4780 4180
	-1   0    0    1   
$EndComp
$Comp
L R_Small R?
U 1 1 5A171C8B
P 4900 4280
F 0 "R?" H 4930 4300 50  0000 L CNN
F 1 "1k" H 4930 4240 50  0000 L CNN
F 2 "Resistors_SMD:R_0805" H 4900 4280 50  0001 C CNN
F 3 "" H 4900 4280 50  0000 C CNN
F 4 "RMCF0805JT1K00CT-ND" H 4930 4400 50  0001 C CNN "DigiKey PN"
	1    4900 4280
	0    -1   -1   0   
$EndComp
Wire Wire Line
	4780 4280 4800 4280
Wire Wire Line
	5000 4280 5110 4280
Wire Wire Line
	5110 4280 5110 4370
Wire Wire Line
	4780 4050 4780 4080
Wire Wire Line
	4900 3970 4900 4060
Wire Wire Line
	4900 4060 4780 4060
Connection ~ 4780 4060
$Comp
L R_Small R?
U 1 1 5A172983
P 4870 2840
F 0 "R?" H 4900 2860 50  0000 L CNN
F 1 "1k" H 4900 2800 50  0000 L CNN
F 2 "Resistors_SMD:R_0805" H 4870 2840 50  0001 C CNN
F 3 "" H 4870 2840 50  0000 C CNN
F 4 "RMCF0805JT1K00CT-ND" H 4900 2960 50  0001 C CNN "DigiKey PN"
	1    4870 2840
	-1   0    0    1   
$EndComp
$Comp
L R_Small R?
U 1 1 5A172B9B
P 4870 3080
F 0 "R?" H 4900 3100 50  0000 L CNN
F 1 "1k" H 4900 3040 50  0000 L CNN
F 2 "Resistors_SMD:R_0805" H 4870 3080 50  0001 C CNN
F 3 "" H 4870 3080 50  0000 C CNN
F 4 "RMCF0805JT1K00CT-ND" H 4900 3200 50  0001 C CNN "DigiKey PN"
	1    4870 3080
	-1   0    0    1   
$EndComp
$Comp
L R_Small R?
U 1 1 5A172C61
P 4980 3250
F 0 "R?" H 5010 3270 50  0000 L CNN
F 1 "1k" H 5010 3210 50  0000 L CNN
F 2 "Resistors_SMD:R_0805" H 4980 3250 50  0001 C CNN
F 3 "" H 4980 3250 50  0000 C CNN
F 4 "RMCF0805JT1K00CT-ND" H 5010 3370 50  0001 C CNN "DigiKey PN"
	1    4980 3250
	0    -1   -1   0   
$EndComp
Wire Wire Line
	4870 2940 4870 2980
Connection ~ 4870 2950
Wire Wire Line
	4870 3180 4870 3250
Wire Wire Line
	4870 3250 4880 3250
Wire Wire Line
	5080 3250 5080 3350
Connection ~ 5080 3350
$EndSCHEMATC
