Refs,DigiKey PN,datasheet,footprint,value
BT1,BAT-HLD-001-ND,,SparkFun:SparkFun-BATTCON_20MM,Battery
C1,1276-1022-1-ND,,Capacitors_SMD:C_0805,0.1uF
C10,1276-1022-1-ND,,Capacitors_SMD:C_0805,0.1uF
C2,1276-1448-1-ND,,Capacitors_SMD:C_0805,1uF
C3,1276-1022-1-ND,,Capacitors_SMD:C_0805,0.1uF
C6,1276-1448-1-ND,,Capacitors_SMD:C_0805,1uF
C7,1276-1022-1-ND,,Capacitors_SMD:C_0805,0.1uF
C8,1276-1022-1-ND,,Capacitors_SMD:C_0805,0.1uF
C9,1276-1022-1-ND,,Capacitors_SMD:C_0805,0.1uF
CON1,952-1922-ND,,Pin_Headers:Pin_Header_Straight_1x06_Pitch2.54mm_SMD_Pin1Left,AVR-ISP-6
D1,475-1278-1-ND,,LEDs:LED_0805,LED
D2,475-1278-1-ND,,LEDs:LED_0805,LED-RED
D3,475-1410-1-ND,,LEDs:LED_0805,LED-GREEN
D4,475-2560-1-ND,,LEDs:LED_0805,LED-YELLOW
J1,WM6698CT-ND,,kicad_lib_gus:uSD-CARD-hinge,Micro_SD_Card
J2,S1013EC-07-ND,,Pin_Headers:Pin_Header_Straight_1x07_Pitch2.54mm_SMD_Pin1Left,SIM800Lbreakout
J3,S1013EC-08-ND,,Pin_Headers:Pin_Header_Straight_1x08_Pitch2.54mm_SMD_Pin1Left,NO2
J4,S1013EC-08-ND,,Pin_Headers:Pin_Header_Straight_1x08_Pitch2.54mm_SMD_Pin1Left,CO
P1,609-4618-1-ND,,Connectors:USB_Micro-B,Power in
P2,WM7626CT-ND,,Connectors_Molex:Molex_PicoBlade_53261-0871_08x1.25mm_Angled,PMS1003
R1,RMCF0805JT1K00CT-ND,,Resistors_SMD:R_0805,1k
R2,RMCF0805JT1K00CT-ND,,Resistors_SMD:R_0805,1k
R3,RMCF0805JT200RCT-ND,,Resistors_SMD:R_0805,200
R4,RMCF0805JT200RCT-ND,,Resistors_SMD:R_0805,200
R5,RMCF0805JT200RCT-ND,,Resistors_SMD:R_0805,200
R6,RMCF0805JT10K0CT-ND,,Resistors_SMD:R_0805,10k
R7,RMCF0805JT10K0CT-ND,,Resistors_SMD:R_0805,10k
R8,RMCF0805JT10K0CT-ND,,Resistors_SMD:R_0805,10k
U1,1727-6331-1-ND,,SMD_Packages:SOIC-14_N,4050
U2,576-4764-1-ND,,TO_SOT_Packages_SMD:SOT-23-5,MIC550X-xYMT
U3,DS3231M+TRLCT-ND,,SMD_Packages:SO-16-W,DS3231N
U4,ATMEGA328-AU-ND,,Housings_QFP:TQFP-32_7x7mm_Pitch0.8mm,ATMEGA328P-AU
U5,1649-1011-1-ND,,Housings_DFN_QFN:DFN-8-1EP_3x3mm_Pitch0.5mm,SHT31-DIS
Y1,535-13436-1-ND,,Crystals:Crystal_SMD_3225-4pin_3.2x2.5mm,16MHz
C4,1276-1130-1-ND,,Capacitors_SMD:C_0805,30pF
C5,1276-1130-1-ND,,Capacitors_SMD:C_0805,30pF
R9,RMCF0805JT10K0CT-ND,,Resistors_SMD:R_0805,10k
SW1,EG4620CT-ND,,Buttons_Switches_SMD:SW_SPST_B3S-1000,SWITCH_SPST
