WEMOS pins
SD: D5 - D6 - D7 - D8 <ATTENTION WITH SPI BUS> Bring SS LOW before interacting with D5, D6 or D7
T&RH + RTC (I2C): D1 - D2
HW Serial: Tx - Rx
Dust Serial: D5 
NO2 Serial: D3 - D4
CO Serial: D6 - D7
